0x02, 0x33, 0xBA, 0x02, 0x32, 0x94, 0x32, 0x32, 0x32, 0x32, 0x22, 0x02, 0x3A, 0x7E, 0x00, 0x00,
0x00, 0x00, 0x00, 0x02, 0x00, 0x06, 0x00, 0x00, 0x00, 0x00, 0x00, 0x02, 0x00, 0x07, 0x00, 0x00,
0x00, 0x00, 0x00, 0x02, 0x00, 0x08, 0x00, 0x00, 0x00, 0x00, 0x00, 0x02, 0x00, 0x09, 0x02, 0x03,
0xE3, 0xE8, 0x64, 0x80, 0xF8, 0xE9, 0x33, 0xE8, 0x33, 0x60, 0x11, 0x04, 0x60, 0xF0, 0xED, 0x33,
0xEC, 0x33, 0x70, 0x09, 0xE8, 0xFC, 0xE9, 0xFD, 0xEA, 0xFE, 0xEB, 0xFF, 0x22, 0x04, 0x60, 0xDE,
0xD3, 0xEB, 0x9F, 0xEA, 0x9E, 0xE9, 0x9D, 0xE8, 0xC2, 0xE7, 0x8C, 0xF0, 0xC2, 0xF7, 0x95, 0xF0,
0x40, 0x0C, 0xE8, 0xCC, 0xF8, 0xE9, 0xCD, 0xF9, 0xEA, 0xCE, 0xFA, 0xEB, 0xCF, 0xFB, 0x12, 0x03,
0xAE, 0x85, 0xD0, 0xF0, 0x58, 0x04, 0x70, 0x03, 0x20, 0xD5, 0xB3, 0xE8, 0x04, 0x70, 0x07, 0x50,
0x02, 0xB2, 0xD5, 0x02, 0x03, 0xED, 0x92, 0xD5, 0xEC, 0x04, 0x60, 0xF7, 0xE4, 0xCC, 0xC0, 0xE0,
0xC3, 0x98, 0xF8, 0x60, 0x3B, 0x94, 0x18, 0x60, 0x08, 0x40, 0x0D, 0xD0, 0xE0, 0xFB, 0x02, 0x03,
0xC5, 0xE4, 0xFB, 0xFA, 0xC9, 0xFC, 0x80, 0x28, 0xE8, 0x30, 0xE4, 0x06, 0xE4, 0xC9, 0xFB, 0xE4,
0xCA, 0xFC, 0xE8, 0x30, 0xE3, 0x05, 0xE4, 0xC9, 0xCA, 0xCB, 0xFC, 0xE8, 0x54, 0x07, 0x60, 0x10,
0xF8, 0xC3, 0xE9, 0x13, 0xF9, 0xEA, 0x13, 0xFA, 0xEB, 0x13, 0xFB, 0xEC, 0x13, 0xFC, 0xD8, 0xF1,
0x30, 0xF5, 0x2F, 0xC3, 0xE4, 0x9C, 0xFC, 0xEF, 0x9B, 0xFF, 0xEE, 0x9A, 0xFE, 0xED, 0x99, 0xFD,
0xD0, 0xE0, 0xFB, 0xEF, 0x4E, 0x4D, 0x4C, 0x70, 0x12, 0x22, 0xDB, 0x03, 0x02, 0x03, 0xEA, 0xEC,
0x2C, 0xFC, 0xEF, 0x33, 0xFF, 0xEE, 0x33, 0xFE, 0xED, 0x33, 0xFD, 0xED, 0x30, 0xE7, 0xEB, 0x02,
0x03, 0xC5, 0xEF, 0x2B, 0xFF, 0xEE, 0x3A, 0xFE, 0xED, 0x39, 0xFD, 0xD0, 0xE0, 0xFB, 0x50, 0x13,
0x0B, 0xBB, 0x00, 0x03, 0x02, 0x03, 0xED, 0xED, 0x13, 0xFD, 0xEE, 0x13, 0xFE, 0xEF, 0x13, 0xFF,
0xEC, 0x13, 0xFC, 0x02, 0x03, 0xC5, 0xEC, 0x4D, 0x60, 0x11, 0xE8, 0x49, 0x70, 0x17, 0xED, 0x33,
0xEC, 0x33, 0x04, 0x60, 0x0D, 0xE4, 0xFC, 0xFF, 0xFE, 0xFD, 0x22, 0xE9, 0x33, 0xE8, 0x33, 0x04,
0x70, 0xF8, 0x02, 0x03, 0xE3, 0x12, 0x03, 0xAE, 0x58, 0x04, 0x60, 0x09, 0xE4, 0xCC, 0x24, 0x81,
0x50, 0x06, 0x28, 0x50, 0x09, 0x02, 0x03, 0xED, 0x28, 0x40, 0x03, 0x02, 0x03, 0xEA, 0xC0, 0xE0,
0xEB, 0x4A, 0x70, 0x44, 0xB9, 0x80, 0x06, 0xD0, 0xE0, 0xFB, 0x02, 0x03, 0xD9, 0xEF, 0x4E, 0x70,
0x1C, 0xBD, 0x80, 0x08, 0xEB, 0xFF, 0xEA, 0xFE, 0xE9, 0xFD, 0x80, 0xEB, 0xE9, 0x8D, 0xF0, 0xA4,
0xFE, 0xE5, 0xF0, 0x02, 0x02, 0x0F, 0xE9, 0xCD, 0xF9, 0xEA, 0xFE, 0xEB, 0xFF, 0xEF, 0x89, 0xF0,
0xA4, 0xFC, 0xE5, 0xF0, 0xCE, 0x89, 0xF0, 0xA4, 0x2E, 0xFF, 0xE4, 0x35, 0xF0, 0xCD, 0x89, 0xF0,
0xA4, 0x2D, 0xFE, 0xE4, 0x35, 0xF0, 0x80, 0x67, 0xEF, 0x4E, 0x70, 0x05, 0xBD, 0x80, 0xD7, 0x80,
0xC3, 0xEF, 0x8B, 0xF0, 0xA4, 0xAC, 0xF0, 0xEE, 0x8B, 0xF0, 0xA4, 0x2C, 0xFC, 0xE4, 0x35, 0xF0,
0xF8, 0xEF, 0x8A, 0xF0, 0xA4, 0x2C, 0xE5, 0xF0, 0x38, 0xFC, 0xE4, 0x33, 0xCB, 0x8D, 0xF0, 0xA4,
0x2C, 0xFC, 0xE5, 0xF0, 0x3B, 0xF8, 0xEE, 0x8A, 0xF0, 0xA4, 0x2C, 0xFC, 0xE5, 0xF0, 0x38, 0xF8,
0xE4, 0x33, 0xCF, 0x89, 0xF0, 0xA4, 0x2C, 0xFC, 0xE5, 0xF0, 0x38, 0xCF, 0x34, 0x00, 0xCE, 0x89,
0xF0, 0xA4, 0x2F, 0xFF, 0xE5, 0xF0, 0x3E, 0xFE, 0xE4, 0x33, 0xC9, 0x8D, 0xF0, 0xA4, 0x2E, 0xFE,
0xE5, 0xF0, 0x39, 0xCD, 0x8A, 0xF0, 0xA4, 0x2F, 0xFF, 0xE5, 0xF0, 0x3E, 0xFE, 0xE4, 0x3D, 0xFD,
0x33, 0xD0, 0xE0, 0xFB, 0x50, 0x07, 0x0B, 0xBB, 0x00, 0x0F, 0x02, 0x03, 0xED, 0xEC, 0x2C, 0xFC,
0xEF, 0x33, 0xFF, 0xEE, 0x33, 0xFE, 0xED, 0x33, 0xFD, 0x02, 0x03, 0xC5, 0x02, 0x03, 0xED, 0xEC,
0x5D, 0x04, 0x60, 0x05, 0xE8, 0x59, 0x04, 0x70, 0x03, 0x02, 0x03, 0xE3, 0x12, 0x03, 0xAE, 0x58,
0x04, 0x60, 0xF6, 0xEC, 0x48, 0x60, 0xF2, 0xEC, 0x70, 0x04, 0xFD, 0xFE, 0xFF, 0x22, 0xC8, 0x60,
0xDB, 0x24, 0x81, 0xC8, 0x50, 0x09, 0xC3, 0x98, 0x60, 0x02, 0x50, 0x06, 0x02, 0x03, 0xEA, 0x98,
0x50, 0xCA, 0xF5, 0x82, 0xE9, 0x29, 0x4B, 0x4A, 0x70, 0x05, 0xAB, 0x82, 0x02, 0x03, 0xD9, 0x75,
0xF0, 0x00, 0x7C, 0x1A, 0x78, 0x80, 0xC3, 0xEF, 0x9B, 0xEE, 0x9A, 0xED, 0x99, 0x40, 0x0D, 0xC3,
0xEF, 0x9B, 0xFF, 0xEE, 0x9A, 0xFE, 0xED, 0x99, 0xFD, 0xE8, 0x42, 0xF0, 0xDC, 0x23, 0xAC, 0xF0,
0xD0, 0xE0, 0xFF, 0xD0, 0xE0, 0xFE, 0xD0, 0xE0, 0xFD, 0xAB, 0x82, 0x20, 0xE7, 0x10, 0x1B, 0xEB,
0x60, 0xBA, 0xEC, 0x2C, 0xFC, 0xEF, 0x33, 0xFF, 0xEE, 0x33, 0xFE, 0xED, 0x33, 0xFD, 0x02, 0x03,
0xC5, 0xE8, 0x03, 0xF8, 0x30, 0xE7, 0x05, 0xC0, 0xF0, 0x75, 0xF0, 0x00, 0xEF, 0x2F, 0xFF, 0xEE,
0x33, 0xFE, 0xED, 0x33, 0xFD, 0x40, 0xB8, 0x30, 0xE7, 0xC2, 0x80, 0xAA, 0x74, 0xF8, 0xCC, 0x64,
0x80, 0xCC, 0xC8, 0x64, 0x80, 0xC8, 0xF5, 0x82, 0x04, 0x60, 0x43, 0xC3, 0xEB, 0x9F, 0xF5, 0xF0,
0xEA, 0x9E, 0x42, 0xF0, 0xE9, 0x9D, 0x42, 0xF0, 0xE8, 0x9C, 0x45, 0xF0, 0x60, 0x30, 0x50, 0x18,
0xE5, 0x82, 0x5F, 0xFF, 0xE5, 0x82, 0xF4, 0x2B, 0x55, 0x82, 0xFB, 0x50, 0x21, 0x0A, 0xBA, 0x00,
0x1D, 0x09, 0xB9, 0x00, 0x19, 0x08, 0x80, 0x16, 0xE5, 0x82, 0x5B, 0xFB, 0xE5, 0x82, 0xF4, 0x2F,
0x55, 0x82, 0xFF, 0x50, 0x09, 0x0E, 0xBE, 0x00, 0x05, 0x0D, 0xBD, 0x00, 0x01, 0x0C, 0xC3, 0xEB,
0x9F, 0xF5, 0xF0, 0xEA, 0x9E, 0x42, 0xF0, 0xE9, 0x9D, 0x42, 0xF0, 0xE8, 0x9C, 0x45, 0xF0, 0x60,
0x07, 0xCC, 0x48, 0x20, 0xE7, 0x01, 0xB3, 0xEC, 0x22, 0x75, 0xF0, 0x20, 0x80, 0x0E, 0x75, 0xF0,
0x10, 0x80, 0x05, 0x75, 0xF0, 0x08, 0x7D, 0x00, 0x7E, 0x00, 0x7F, 0x00, 0x33, 0x92, 0xD5, 0x30,
0xD5, 0x03, 0x12, 0x06, 0xC6, 0xEC, 0x33, 0x40, 0x10, 0xEF, 0x33, 0xFF, 0xEE, 0x33, 0xFE, 0xED,
0x33, 0xFD, 0xEC, 0x33, 0xFC, 0xD5, 0xF0, 0xED, 0x22, 0xE5, 0xF0, 0x24, 0x7E, 0xA2, 0xD5, 0x13,
0xCC, 0x92, 0xE7, 0xCD, 0xCE, 0xFF, 0x22, 0xED, 0xD2, 0xE7, 0xCD, 0x33, 0xEC, 0x33, 0x92, 0xD5,
0x24, 0x81, 0x40, 0x06, 0xE4, 0xFF, 0xFE, 0xFD, 0xFC, 0x22, 0xFC, 0xE4, 0xCF, 0xCE, 0xCD, 0xCC,
0x24, 0xE0, 0x50, 0x11, 0x74, 0xFF, 0x80, 0xED, 0xC3, 0xCC, 0x13, 0xCC, 0xCD, 0x13, 0xCD, 0xCE,
0x13, 0xCE, 0xCF, 0x13, 0xCF, 0x04, 0x70, 0xF0, 0x30, 0xD5, 0xDE, 0x02, 0x06, 0xC6, 0xE9, 0xD2,
0xE7, 0xC9, 0x33, 0xE8, 0x33, 0xF8, 0x92, 0xD5, 0xED, 0xD2, 0xE7, 0xCD, 0x33, 0xEC, 0x33, 0xFC,
0x50, 0x02, 0xB2, 0xD5, 0x22, 0xEC, 0x30, 0xE7, 0x10, 0x0F, 0xBF, 0x00, 0x0C, 0x0E, 0xBE, 0x00,
0x08, 0x0D, 0xBD, 0x00, 0x04, 0x0B, 0xEB, 0x60, 0x14, 0xA2, 0xD5, 0xEB, 0x13, 0xFC, 0xED, 0x92,
0xE7, 0xFD, 0x22, 0x74, 0xFF, 0xFC, 0xFD, 0xFE, 0xFF, 0x22, 0xE4, 0x80, 0xF8, 0xA2, 0xD5, 0x74,
0xFF, 0x13, 0xFC, 0x7D, 0x80, 0xE4, 0x80, 0xEF, 0xE7, 0x09, 0xF6, 0x08, 0xDF, 0xFA, 0x80, 0x46,
0xE7, 0x09, 0xF2, 0x08, 0xDF, 0xFA, 0x80, 0x3E, 0x88, 0x82, 0x8C, 0x83, 0xE7, 0x09, 0xF0, 0xA3,
0xDF, 0xFA, 0x80, 0x32, 0xE3, 0x09, 0xF6, 0x08, 0xDF, 0xFA, 0x80, 0x78, 0xE3, 0x09, 0xF2, 0x08,
0xDF, 0xFA, 0x80, 0x70, 0x88, 0x82, 0x8C, 0x83, 0xE3, 0x09, 0xF0, 0xA3, 0xDF, 0xFA, 0x80, 0x64,
0x89, 0x82, 0x8A, 0x83, 0xE0, 0xA3, 0xF6, 0x08, 0xDF, 0xFA, 0x80, 0x58, 0x89, 0x82, 0x8A, 0x83,
0xE0, 0xA3, 0xF2, 0x08, 0xDF, 0xFA, 0x80, 0x4C, 0x80, 0xD2, 0x80, 0xFA, 0x80, 0xC6, 0x80, 0xD4,
0x80, 0x69, 0x80, 0xF2, 0x80, 0x33, 0x80, 0x10, 0x80, 0xA6, 0x80, 0xEA, 0x80, 0x9A, 0x80, 0xA8,
0x80, 0xDA, 0x80, 0xE2, 0x80, 0xCA, 0x80, 0x33, 0x89, 0x82, 0x8A, 0x83, 0xEC, 0xFA, 0xE4, 0x93,
0xA3, 0xC8, 0xC5, 0x82, 0xC8, 0xCC, 0xC5, 0x83, 0xCC, 0xF0, 0xA3, 0xC8, 0xC5, 0x82, 0xC8, 0xCC,
0xC5, 0x83, 0xCC, 0xDF, 0xE9, 0xDE, 0xE7, 0x80, 0x0D, 0x89, 0x82, 0x8A, 0x83, 0xE4, 0x93, 0xA3,
0xF6, 0x08, 0xDF, 0xF9, 0xEC, 0xFA, 0xA9, 0xF0, 0xED, 0xFB, 0x22, 0x89, 0x82, 0x8A, 0x83, 0xEC,
0xFA, 0xE0, 0xA3, 0xC8, 0xC5, 0x82, 0xC8, 0xCC, 0xC5, 0x83, 0xCC, 0xF0, 0xA3, 0xC8, 0xC5, 0x82,
0xC8, 0xCC, 0xC5, 0x83, 0xCC, 0xDF, 0xEA, 0xDE, 0xE8, 0x80, 0xDB, 0x89, 0x82, 0x8A, 0x83, 0xE4,
0x93, 0xA3, 0xF2, 0x08, 0xDF, 0xF9, 0x80, 0xCC, 0x88, 0xF0, 0xEF, 0x60, 0x01, 0x0E, 0x4E, 0x60,
0xC3, 0x88, 0xF0, 0xED, 0x24, 0x02, 0xB4, 0x04, 0x00, 0x50, 0xB9, 0xF5, 0x82, 0xEB, 0x24, 0x02,
0xB4, 0x04, 0x00, 0x50, 0xAF, 0x23, 0x23, 0x45, 0x82, 0x23, 0x90, 0x04, 0x48, 0x73, 0xBB, 0x01,
0x0C, 0xE5, 0x82, 0x29, 0xF5, 0x82, 0xE5, 0x83, 0x3A, 0xF5, 0x83, 0xE0, 0x22, 0x50, 0x06, 0xE9,
0x25, 0x82, 0xF8, 0xE6, 0x22, 0xBB, 0xFE, 0x06, 0xE9, 0x25, 0x82, 0xF8, 0xE2, 0x22, 0xE5, 0x82,
0x29, 0xF5, 0x82, 0xE5, 0x83, 0x3A, 0xF5, 0x83, 0xE4, 0x93, 0x22, 0xEF, 0x8D, 0xF0, 0xA4, 0xA8,
0xF0, 0xCF, 0x8C, 0xF0, 0xA4, 0x28, 0xCE, 0x8D, 0xF0, 0xA4, 0x2E, 0xFE, 0x22, 0xBC, 0x00, 0x0B,
0xBE, 0x00, 0x29, 0xEF, 0x8D, 0xF0, 0x84, 0xFF, 0xAD, 0xF0, 0x22, 0xE4, 0xCC, 0xF8, 0x75, 0xF0,
0x08, 0xEF, 0x2F, 0xFF, 0xEE, 0x33, 0xFE, 0xEC, 0x33, 0xFC, 0xEE, 0x9D, 0xEC, 0x98, 0x40, 0x05,
0xFC, 0xEE, 0x9D, 0xFE, 0x0F, 0xD5, 0xF0, 0xE9, 0xE4, 0xCE, 0xFD, 0x22, 0xED, 0xF8, 0xF5, 0xF0,
0xEE, 0x84, 0x20, 0xD2, 0x1C, 0xFE, 0xAD, 0xF0, 0x75, 0xF0, 0x08, 0xEF, 0x2F, 0xFF, 0xED, 0x33,
0xFD, 0x40, 0x07, 0x98, 0x50, 0x06, 0xD5, 0xF0, 0xF2, 0x22, 0xC3, 0x98, 0xFD, 0x0F, 0xD5, 0xF0,
0xEA, 0x22, 0xC5, 0xF0, 0xF8, 0xA3, 0xE0, 0x28, 0xF0, 0xC5, 0xF0, 0xF8, 0xE5, 0x82, 0x15, 0x82,
0x70, 0x02, 0x15, 0x83, 0xE0, 0x38, 0xF0, 0x22, 0xBB, 0x01, 0x10, 0xE5, 0x82, 0x29, 0xF5, 0x82,
0xE5, 0x83, 0x3A, 0xF5, 0x83, 0xE0, 0xF5, 0xF0, 0xA3, 0xE0, 0x22, 0x50, 0x09, 0xE9, 0x25, 0x82,
0xF8, 0x86, 0xF0, 0x08, 0xE6, 0x22, 0xBB, 0xFE, 0x0A, 0xE9, 0x25, 0x82, 0xF8, 0xE2, 0xF5, 0xF0,
0x08, 0xE2, 0x22, 0xE5, 0x83, 0x2A, 0xF5, 0x83, 0xE9, 0x93, 0xF5, 0xF0, 0xA3, 0xE9, 0x93, 0x22,
0xEF, 0x2B, 0xFF, 0xEE, 0x3A, 0xFE, 0xED, 0x39, 0xFD, 0xEC, 0x38, 0xFC, 0x22, 0xC3, 0xEF, 0x9B,
0xFF, 0xEE, 0x9A, 0xFE, 0xED, 0x99, 0xFD, 0xEC, 0x98, 0xFC, 0x22, 0x75, 0xF0, 0x08, 0x75, 0x82,
0x00, 0xEF, 0x2F, 0xFF, 0xEE, 0x33, 0xFE, 0xCD, 0x33, 0xCD, 0xCC, 0x33, 0xCC, 0xC5, 0x82, 0x33,
0xC5, 0x82, 0x9B, 0xED, 0x9A, 0xEC, 0x99, 0xE5, 0x82, 0x98, 0x40, 0x0C, 0xF5, 0x82, 0xEE, 0x9B,
0xFE, 0xED, 0x9A, 0xFD, 0xEC, 0x99, 0xFC, 0x0F, 0xD5, 0xF0, 0xD6, 0xE4, 0xCE, 0xFB, 0xE4, 0xCD,
0xFA, 0xE4, 0xCC, 0xF9, 0xA8, 0x82, 0x22, 0xB8, 0x00, 0xC1, 0xB9, 0x00, 0x59, 0xBA, 0x00, 0x2D,
0xEC, 0x8B, 0xF0, 0x84, 0xCF, 0xCE, 0xCD, 0xFC, 0xE5, 0xF0, 0xCB, 0xF9, 0x78, 0x18, 0xEF, 0x2F,
0xFF, 0xEE, 0x33, 0xFE, 0xED, 0x33, 0xFD, 0xEC, 0x33, 0xFC, 0xEB, 0x33, 0xFB, 0x10, 0xD7, 0x03,
0x99, 0x40, 0x04, 0xEB, 0x99, 0xFB, 0x0F, 0xD8, 0xE5, 0xE4, 0xF9, 0xFA, 0x22, 0x78, 0x18, 0xEF,
0x2F, 0xFF, 0xEE, 0x33, 0xFE, 0xED, 0x33, 0xFD, 0xEC, 0x33, 0xFC, 0xC9, 0x33, 0xC9, 0x10, 0xD7,
0x05, 0x9B, 0xE9, 0x9A, 0x40, 0x07, 0xEC, 0x9B, 0xFC, 0xE9, 0x9A, 0xF9, 0x0F, 0xD8, 0xE0, 0xE4,
0xC9, 0xFA, 0xE4, 0xCC, 0xFB, 0x22, 0x75, 0xF0, 0x10, 0xEF, 0x2F, 0xFF, 0xEE, 0x33, 0xFE, 0xED,
0x33, 0xFD, 0xCC, 0x33, 0xCC, 0xC8, 0x33, 0xC8, 0x10, 0xD7, 0x07, 0x9B, 0xEC, 0x9A, 0xE8, 0x99,
0x40, 0x0A, 0xED, 0x9B, 0xFD, 0xEC, 0x9A, 0xFC, 0xE8, 0x99, 0xF8, 0x0F, 0xD5, 0xF0, 0xDA, 0xE4,
0xCD, 0xFB, 0xE4, 0xCC, 0xFA, 0xE4, 0xC8, 0xF9, 0x22, 0xEF, 0x4B, 0xFF, 0xEE, 0x4A, 0xFE, 0xED,
0x49, 0xFD, 0xEC, 0x48, 0xFC, 0x22, 0xC3, 0xE4, 0x9F, 0xFF, 0xE4, 0x9E, 0xFE, 0xE4, 0x9D, 0xFD,
0xE4, 0x9C, 0xFC, 0x22, 0xEB, 0x9F, 0xF5, 0xF0, 0xEA, 0x9E, 0x42, 0xF0, 0xE9, 0x9D, 0x42, 0xF0,
0xEC, 0x64, 0x80, 0xC8, 0x64, 0x80, 0x98, 0x45, 0xF0, 0x22, 0xEB, 0x9F, 0xF5, 0xF0, 0xEA, 0x9E,
0x42, 0xF0, 0xE9, 0x9D, 0x42, 0xF0, 0xE8, 0x9C, 0x45, 0xF0, 0x22, 0xE8, 0x60, 0x0F, 0xEC, 0xC3,
0x13, 0xFC, 0xED, 0x13, 0xFD, 0xEE, 0x13, 0xFE, 0xEF, 0x13, 0xFF, 0xD8, 0xF1, 0x22, 0xE8, 0x60,
0x10, 0xEC, 0xA2, 0xE7, 0x13, 0xFC, 0xED, 0x13, 0xFD, 0xEE, 0x13, 0xFE, 0xEF, 0x13, 0xFF, 0xD8,
0xF0, 0x22, 0xE8, 0x60, 0x0F, 0xEF, 0xC3, 0x33, 0xFF, 0xEE, 0x33, 0xFE, 0xED, 0x33, 0xFD, 0xEC,
0x33, 0xFC, 0xD8, 0xF1, 0x22, 0xE6, 0xFC, 0x08, 0xE6, 0xFD, 0x08, 0xE6, 0xFE, 0x08, 0xE6, 0xFF,
0x22, 0xE0, 0xFC, 0xA3, 0xE0, 0xFD, 0xA3, 0xE0, 0xFE, 0xA3, 0xE0, 0xFF, 0x22, 0xE6, 0xFB, 0x08,
0xE6, 0xF9, 0x08, 0xE6, 0xFA, 0x08, 0xE6, 0xCB, 0xF8, 0x22, 0xE0, 0xF8, 0xA3, 0xE0, 0xF9, 0xA3,
0xE0, 0xFA, 0xA3, 0xE0, 0xFB, 0x22, 0x74, 0x01, 0xFF, 0x33, 0x95, 0xE0, 0xFE, 0xFD, 0xFC, 0xA3,
0xA3, 0xA3, 0xE0, 0xCF, 0x2F, 0xF0, 0xE5, 0x82, 0x15, 0x82, 0x70, 0x02, 0x15, 0x83, 0xE0, 0xCE,
0x3E, 0xF0, 0xE5, 0x82, 0x15, 0x82, 0x70, 0x02, 0x15, 0x83, 0xE0, 0xCD, 0x3D, 0xF0, 0xE5, 0x82,
0x15, 0x82, 0x70, 0x02, 0x15, 0x83, 0xE0, 0xCC, 0x3C, 0xF0, 0x22, 0x74, 0x01, 0xFF, 0x33, 0x95,
0xE0, 0xFE, 0xFD, 0xFC, 0xA3, 0xA3, 0xA3, 0xE0, 0x2F, 0xFF, 0xF0, 0xE5, 0x82, 0x15, 0x82, 0x70,
0x02, 0x15, 0x83, 0xE0, 0x3E, 0xFE, 0xF0, 0xE5, 0x82, 0x15, 0x82, 0x70, 0x02, 0x15, 0x83, 0xE0,
0x3D, 0xFD, 0xF0, 0xE5, 0x82, 0x15, 0x82, 0x70, 0x02, 0x15, 0x83, 0xE0, 0x3C, 0xFC, 0xF0, 0x22,
0xEC, 0xF6, 0x08, 0xED, 0xF6, 0x08, 0xEE, 0xF6, 0x08, 0xEF, 0xF6, 0x22, 0xEC, 0xF0, 0xA3, 0xED,
0xF0, 0xA3, 0xEE, 0xF0, 0xA3, 0xEF, 0xF0, 0x22, 0xD0, 0x83, 0xD0, 0x82, 0xE4, 0x93, 0xF6, 0x08,
0x74, 0x01, 0x93, 0xF6, 0x08, 0x74, 0x02, 0x93, 0xF6, 0x08, 0x74, 0x03, 0x93, 0xF6, 0x74, 0x04,
0x73, 0xA8, 0x82, 0x85, 0x83, 0xF0, 0xD0, 0x83, 0xD0, 0x82, 0x12, 0x08, 0x18, 0x12, 0x08, 0x18,
0x12, 0x08, 0x18, 0x12, 0x08, 0x18, 0xE4, 0x73, 0xE4, 0x93, 0xA3, 0xC5, 0x83, 0xC5, 0xF0, 0xC5,
0x83, 0xC8, 0xC5, 0x82, 0xC8, 0xF0, 0xA3, 0xC5, 0x83, 0xC5, 0xF0, 0xC5, 0x83, 0xC8, 0xC5, 0x82,
0xC8, 0x22, 0xA4, 0x25, 0x82, 0xF5, 0x82, 0xE5, 0xF0, 0x35, 0x83, 0xF5, 0x83, 0x22, 0xE0, 0xFB,
0xA3, 0xE0, 0xFA, 0xA3, 0xE0, 0xF9, 0x22, 0xEB, 0xF0, 0xA3, 0xEA, 0xF0, 0xA3, 0xE9, 0xF0, 0x22,
0xD0, 0x83, 0xD0, 0x82, 0xF8, 0xE4, 0x93, 0x70, 0x12, 0x74, 0x01, 0x93, 0x70, 0x0D, 0xA3, 0xA3,
0x93, 0xF8, 0x74, 0x01, 0x93, 0xF5, 0x82, 0x88, 0x83, 0xE4, 0x73, 0x74, 0x02, 0x93, 0x68, 0x60,
0xEF, 0xA3, 0xA3, 0xA3, 0x80, 0xDF, 0x90, 0x82, 0x15, 0x12, 0x0E, 0x07, 0x12, 0x0E, 0x09, 0x90,
0x28, 0x96, 0x74, 0x20, 0xF0, 0x90, 0x80, 0xCD, 0xE0, 0x60, 0x0B, 0xE4, 0xFF, 0xFE, 0xFD, 0x7C,
0x44, 0x90, 0x80, 0x5E, 0x80, 0x09, 0xE4, 0xFF, 0xFE, 0xFD, 0x7C, 0x44, 0x90, 0x80, 0x48, 0x12,
0x07, 0x5A, 0x12, 0x01, 0x26, 0x12, 0x10, 0x42, 0x12, 0x03, 0x77, 0x90, 0x82, 0x06, 0xEE, 0xF0,
0xA3, 0xEF, 0xF0, 0x12, 0x0D, 0xE9, 0x12, 0x03, 0x77, 0xAC, 0x06, 0xAD, 0x07, 0x7E, 0x0F, 0x7F,
0xA0, 0x12, 0x05, 0x2D, 0xA9, 0x07, 0xEF, 0xFD, 0x90, 0x82, 0x06, 0xE0, 0xFA, 0xA3, 0xE0, 0xFB,
0xC3, 0x9D, 0xFE, 0xEA, 0x94, 0x00, 0x90, 0x82, 0x02, 0xF0, 0xA3, 0xCE, 0xF0, 0x7E, 0x00, 0xEB,
0x2F, 0xFF, 0xEE, 0x3A, 0xA3, 0xF0, 0xA3, 0xEF, 0xF0, 0x90, 0x82, 0x0A, 0xE4, 0xF0, 0xA3, 0x74,
0xFA, 0xF0, 0xE4, 0x90, 0x82, 0x14, 0xF0, 0x90, 0x28, 0x96, 0xE0, 0x44, 0x01, 0xF0, 0x7F, 0x02,
0x7D, 0x00, 0x7C, 0x00, 0x12, 0x3A, 0xB5, 0x90, 0x28, 0x96, 0xE0, 0x54, 0xFE, 0xF0, 0x90, 0x28,
0x8D, 0xE4, 0xF0, 0x90, 0x28, 0x8C, 0xE0, 0x44, 0x01, 0xF0, 0x90, 0x28, 0x93, 0xE0, 0x20, 0xE4,
0x0A, 0x7F, 0x02, 0x12, 0x0D, 0x94, 0x12, 0x3A, 0xB5, 0x80, 0xEF, 0x7F, 0x01, 0x12, 0x0D, 0x94,
0x12, 0x39, 0xC9, 0x90, 0x82, 0x07, 0xE0, 0x24, 0xFC, 0xFE, 0x90, 0x82, 0x06, 0xE0, 0x34, 0xFF,
0x90, 0x82, 0x15, 0xF0, 0xA3, 0xCE, 0xF0, 0xE4, 0x90, 0x82, 0x19, 0xF0, 0x90, 0x82, 0x15, 0xE0,
0xFE, 0xA3, 0xE0, 0xFF, 0xFD, 0x90, 0x82, 0x19, 0xE0, 0xFC, 0x2D, 0x90, 0x28, 0x90, 0xF0, 0xEC,
0xFD, 0x7C, 0x00, 0xEF, 0x2D, 0xEC, 0x3E, 0x54, 0x03, 0xA3, 0xF0, 0x90, 0x28, 0x8C, 0x74, 0x01,
0xF0, 0x7F, 0x05, 0x7E, 0x00, 0x7D, 0x00, 0x12, 0x0C, 0x87, 0x90, 0x82, 0x17, 0xEE, 0x8F, 0xF0,
0x12, 0x05, 0x82, 0x90, 0x82, 0x19, 0xE0, 0x04, 0xF0, 0xE0, 0xC3, 0x94, 0x08, 0x40, 0xBD, 0x90,
0x82, 0x17, 0xE0, 0xFE, 0xA3, 0xE0, 0x78, 0x03, 0xCE, 0xC3, 0x13, 0xCE, 0x13, 0xD8, 0xF9, 0xF0,
0xEE, 0x90, 0x82, 0x17, 0xF0, 0xE0, 0xFC, 0xA3, 0xE0, 0xFD, 0x90, 0x82, 0x1B, 0xEC, 0xF0, 0xA3,
0xED, 0xF0, 0xE4, 0x12, 0x03, 0x3E, 0x7B, 0x33, 0x7A, 0x33, 0x79, 0xB3, 0x78, 0x3E, 0x12, 0x0E,
0xA7, 0x90, 0x82, 0x0A, 0xEE, 0xF0, 0xA3, 0xEF, 0xF0, 0x90, 0x82, 0x02, 0xE0, 0xFF, 0xA3, 0xE0,
0x90, 0x81, 0xFC, 0xCF, 0xF0, 0xA3, 0xEF, 0xF0, 0x12, 0x0F, 0x12, 0x90, 0x81, 0xFD, 0xE0, 0x9F,
0x90, 0x81, 0xFC, 0xE0, 0x9E, 0x40, 0x03, 0x02, 0x0A, 0x7B, 0x12, 0x0D, 0x7E, 0x12, 0x0C, 0x87,
0x12, 0x10, 0x4B, 0x90, 0x82, 0x0A, 0xE0, 0xFE, 0xA3, 0xE0, 0xFF, 0x12, 0x0D, 0xAB, 0x40, 0x22,
0x12, 0x0F, 0x45, 0x12, 0x0D, 0xAA, 0x40, 0x09, 0x90, 0x82, 0x1D, 0xE0, 0x24, 0x07, 0xF0, 0x80,
0x16, 0x12, 0x0F, 0xE6, 0x12, 0x0D, 0xAA, 0x40, 0x0E, 0x90, 0x82, 0x1D, 0xE0, 0x24, 0x05, 0xF0,
0x80, 0x05, 0xE4, 0x90, 0x82, 0x14, 0xF0, 0x90, 0x82, 0x1D, 0xE0, 0xC3, 0x94, 0x0A, 0x40, 0x06,
0x90, 0x81, 0xED, 0x74, 0x01, 0xF0, 0x90, 0x82, 0x14, 0xE0, 0xC3, 0x94, 0x0A, 0x40, 0x2F, 0xE4,
0xF0, 0x90, 0x82, 0x1D, 0xF0, 0x90, 0x81, 0xFC, 0x12, 0x0F, 0x70, 0x54, 0x03, 0xA3, 0xF0, 0x90,
0x28, 0x8C, 0x12, 0x0E, 0xE8, 0x12, 0x0D, 0x94, 0x12, 0x3A, 0xB5, 0x90, 0x28, 0x95, 0xE0, 0x54,
0x3F, 0xFE, 0x90, 0x28, 0x94, 0xE0, 0xFD, 0xED, 0xFF, 0x12, 0x10, 0x4B, 0x80, 0x0D, 0x90, 0x81,
0xFC, 0xE4, 0x75, 0xF0, 0x01, 0x12, 0x05, 0x82, 0x02, 0x09, 0xD8, 0x90, 0x82, 0x04, 0xE0, 0xFF,
0xA3, 0xE0, 0x90, 0x81, 0xFE, 0xCF, 0xF0, 0xA3, 0xEF, 0xF0, 0x90, 0x82, 0x06, 0x12, 0x10, 0x3B,
0x90, 0x81, 0xFF, 0xE0, 0x9F, 0x90, 0x81, 0xFE, 0xE0, 0x9E, 0x50, 0x03, 0x02, 0x0B, 0x29, 0x12,
0x0D, 0x7E, 0x12, 0x3A, 0xB5, 0x12, 0x0E, 0x12, 0x90, 0x82, 0x0A, 0xE0, 0xFE, 0xA3, 0xE0, 0xFF,
0x90, 0x81, 0xF8, 0x12, 0x0D, 0xAE, 0x40, 0x30, 0x12, 0x0F, 0x45, 0xFE, 0xE4, 0xFC, 0xFD, 0x90,
0x81, 0xF8, 0x12, 0x0D, 0xB1, 0x40, 0x09, 0x90, 0x82, 0x1D, 0xE0, 0x24, 0x07, 0xF0, 0x80, 0x1D,
0x12, 0x0F, 0xE6, 0xFE, 0xE4, 0xFC, 0xFD, 0x90, 0x81, 0xF8, 0x12, 0x0D, 0xB1, 0x40, 0x0E, 0x90,
0x82, 0x1D, 0xE0, 0x24, 0x05, 0xF0, 0x80, 0x05, 0xE4, 0x90, 0x82, 0x14, 0xF0, 0x90, 0x82, 0x1D,
0xE0, 0xC3, 0x94, 0x0A, 0x40, 0x06, 0x90, 0x81, 0xED, 0x74, 0x01, 0xF0, 0x90, 0x82, 0x14, 0xE0,
0xC3, 0x94, 0x0A, 0x40, 0x17, 0xE4, 0xF0, 0x90, 0x82, 0x1D, 0xF0, 0x90, 0x81, 0xFE, 0x12, 0x0F,
0x70, 0x12, 0x0D, 0x87, 0x12, 0x3A, 0xB5, 0x12, 0x0E, 0x12, 0x80, 0x0D, 0x90, 0x81, 0xFE, 0x74,
0xFF, 0xF5, 0xF0, 0x12, 0x05, 0x82, 0x02, 0x0A, 0x8A, 0x90, 0x81, 0xFC, 0xE0, 0xFE, 0xA3, 0xE0,
0xFF, 0x90, 0x81, 0xFF, 0xE0, 0x2F, 0xFF, 0x90, 0x81, 0xFE, 0xE0, 0x3E, 0xC3, 0x13, 0xFE, 0xEF,
0x13, 0xFF, 0x90, 0x82, 0x08, 0xEE, 0xF0, 0xA3, 0xEF, 0xF0, 0x90, 0x82, 0x06, 0xE0, 0xFA, 0xA3,
0xE0, 0xFB, 0xB5, 0x07, 0x18, 0xEA, 0xB5, 0x06, 0x14, 0xE4, 0x90, 0x82, 0x00, 0xF0, 0xA3, 0xF0,
0x90, 0x81, 0xC2, 0x12, 0x08, 0x01, 0x00, 0x00, 0x00, 0x00, 0x02, 0x0B, 0xBF, 0xC3, 0x90, 0x82,
0x09, 0xE0, 0x9B, 0x90, 0x82, 0x08, 0xE0, 0x9A, 0x50, 0x19, 0x12, 0x0F, 0x15, 0x90, 0x82, 0x07,
0xE0, 0x90, 0x82, 0x06, 0x12, 0x0D, 0xDE, 0xE4, 0xFB, 0xFA, 0x79, 0x80, 0x78, 0xBF, 0x12, 0x01,
0x26, 0x80, 0x0D, 0x12, 0x0F, 0x12, 0x90, 0x82, 0x09, 0xE0, 0x90, 0x82, 0x08, 0x12, 0x0D, 0xDE,
0xC0, 0x04, 0xC0, 0x05, 0xC0, 0x06, 0xC0, 0x07, 0x90, 0x82, 0x00, 0x12, 0x0F, 0x5C, 0xD0, 0x03,
0xD0, 0x02, 0xD0, 0x01, 0xD0, 0x00, 0x12, 0x01, 0x26, 0x90, 0x81, 0xC2, 0x12, 0x07, 0xDC, 0x90,
0x81, 0xED, 0xE0, 0xB4, 0x01, 0x0A, 0x90, 0x81, 0xC2, 0x12, 0x08, 0x01, 0x00, 0x00, 0x00, 0x00,
0x90, 0x82, 0x00, 0xE0, 0xFA, 0xA3, 0xE0, 0xFB, 0xD3, 0x94, 0x04, 0xEA, 0x94, 0x00, 0x50, 0x0A,
0x90, 0x81, 0xC2, 0x12, 0x08, 0x01, 0x00, 0x00, 0x00, 0x00, 0x90, 0x81, 0xFC, 0x12, 0x0F, 0x15,
0x90, 0x81, 0xFF, 0xE0, 0x9F, 0xFF, 0x90, 0x81, 0xFE, 0xE0, 0x9E, 0xFE, 0xD3, 0xEF, 0x94, 0xAB,
0xEE, 0x94, 0x00, 0x40, 0x0A, 0x90, 0x81, 0xC2, 0x12, 0x08, 0x01, 0x00, 0x00, 0x00, 0x00, 0xC3,
0xEB, 0x94, 0x12, 0xEA, 0x94, 0x00, 0x40, 0x0A, 0x90, 0x81, 0xC2, 0x12, 0x08, 0x01, 0x00, 0x00,
0x00, 0x00, 0x90, 0x80, 0xCD, 0xE0, 0x90, 0x81, 0xC2, 0x60, 0x08, 0x12, 0x07, 0x41, 0x90, 0x80,
0x5E, 0x80, 0x06, 0x12, 0x07, 0x41, 0x90, 0x80, 0x48, 0x12, 0x07, 0x5A, 0x12, 0x00, 0x35, 0x12,
0x10, 0x42, 0x90, 0x82, 0x0C, 0x12, 0x07, 0xDC, 0x90, 0x82, 0x0C, 0x12, 0x0E, 0x9E, 0x90, 0x82,
0x10, 0x12, 0x07, 0xDC, 0x90, 0x82, 0x10, 0x12, 0x07, 0x41, 0x90, 0x27, 0x58, 0xEF, 0xF0, 0x90,
0x82, 0x10, 0x12, 0x0E, 0xF4, 0x90, 0x27, 0x59, 0xEF, 0xF0, 0x90, 0x82, 0x10, 0x12, 0x0F, 0x27,
0x90, 0x82, 0x10, 0x12, 0x0F, 0x8F, 0xEF, 0xF0, 0x90, 0x28, 0x96, 0xE4, 0x12, 0x0D, 0x4A, 0x90,
0x28, 0x96, 0xE0, 0x44, 0x01, 0xF0, 0x22, 0x12, 0x3A, 0xB5, 0x90, 0x28, 0x95, 0xE0, 0x54, 0x3F,
0xFE, 0x90, 0x28, 0x94, 0xE0, 0xFD, 0xED, 0xFF, 0x22, 0x90, 0x23, 0xE0, 0x74, 0x04, 0xF0, 0x90,
0x80, 0x62, 0xE0, 0xFC, 0xA3, 0xE0, 0xFD, 0xE4, 0x12, 0x03, 0x3E, 0x90, 0x81, 0x8A, 0x12, 0x07,
0xDC, 0xE4, 0xFF, 0xFE, 0xFD, 0x7C, 0x40, 0x90, 0x81, 0x8A, 0x12, 0x07, 0x5A, 0x12, 0x01, 0x26,
0xA8, 0x04, 0xA9, 0x05, 0xAA, 0x06, 0xAB, 0x07, 0x90, 0x80, 0x64, 0x12, 0x07, 0x41, 0x12, 0x02,
0x2F, 0xE4, 0xFB, 0xFA, 0x79, 0x80, 0x78, 0xBF, 0x12, 0x00, 0x35, 0x90, 0x81, 0xBA, 0x12, 0x07,
0xDC, 0xE4, 0xFF, 0xFE, 0x7D, 0x80, 0x7C, 0x4C, 0x90, 0x81, 0xBA, 0x12, 0x07, 0x5A, 0x12, 0x01,
0x26, 0x12, 0x03, 0x77, 0x90, 0x81, 0x8E, 0x12, 0x07, 0xDC, 0x90, 0x81, 0x8E, 0x12, 0x07, 0x41,
0x90, 0x28, 0x10, 0xEF, 0xF0, 0x90, 0x81, 0x8E, 0x12, 0x07, 0x41, 0x78, 0x08, 0x12, 0x06, 0xFB,
0x90, 0x28, 0x11, 0xEF, 0xF0, 0x90, 0x81, 0x8E, 0x12, 0x07, 0x41, 0x78, 0x10, 0x12, 0x06, 0xFB,
0x90, 0x28, 0x12, 0xEF, 0xF0, 0x90, 0x81, 0x8E, 0x12, 0x07, 0x41, 0x78, 0x18, 0x12, 0x06, 0xFB,
0x90, 0x28, 0x13, 0xEF, 0xF0, 0x90, 0x27, 0x03, 0xE0, 0x44, 0x10, 0xF0, 0x22, 0x90, 0x27, 0x36,
0xF0, 0x90, 0x27, 0x02, 0x74, 0xFF, 0xF0, 0x74, 0x7F, 0xA3, 0xF0, 0x90, 0x27, 0x02, 0x74, 0xFF,
0xF0, 0xA3, 0x74, 0x7F, 0xF0, 0x22, 0x90, 0x26, 0x03, 0xE0, 0x44, 0x80, 0xF0, 0x90, 0x26, 0x2F,
0xE0, 0xFF, 0xE4, 0xFC, 0xFD, 0xFE, 0x78, 0x26, 0x12, 0x07, 0xD0, 0x78, 0x26, 0x12, 0x07, 0x35,
0x78, 0x08, 0x12, 0x07, 0x22, 0xA8, 0x04, 0xA9, 0x05, 0xAA, 0x06, 0xAB, 0x07, 0x22, 0xE0, 0xFE,
0xA3, 0xE0, 0x90, 0x28, 0x90, 0xF0, 0xEE, 0x54, 0x03, 0xA3, 0xF0, 0x90, 0x28, 0x8C, 0xE0, 0x44,
0x01, 0xF0, 0x7F, 0x0A, 0x7E, 0x00, 0x7D, 0x00, 0x7C, 0x00, 0x22, 0x90, 0x23, 0xF3, 0xE4, 0xF0,
0x90, 0x23, 0xF0, 0x74, 0x40, 0xF0, 0x74, 0x01, 0xF0, 0x22, 0xFE, 0x90, 0x81, 0xF4, 0xE4, 0xFC,
0xFD, 0x12, 0x07, 0x5A, 0xD3, 0x02, 0x06, 0xEA, 0x90, 0x23, 0xE0, 0xE4, 0xF0, 0x04, 0x90, 0x2C,
0x00, 0xF0, 0x90, 0x26, 0x00, 0x22, 0x90, 0x80, 0xB5, 0x74, 0x01, 0xF0, 0x90, 0x26, 0x15, 0xE0,
0x90, 0x23, 0xE0, 0x22, 0x90, 0x2D, 0x74, 0xE0, 0xFF, 0xE4, 0xFC, 0xFD, 0xFE, 0x22, 0x9F, 0xFF,
0xE0, 0x9E, 0x90, 0x82, 0x00, 0xF0, 0xA3, 0xEF, 0xF0, 0xE4, 0xFB, 0xFA, 0xF9, 0x78, 0x44, 0x90,
0x80, 0x64, 0x12, 0x07, 0x41, 0x02, 0x02, 0x2F, 0x90, 0x26, 0x82, 0xF0, 0x74, 0x03, 0xA3, 0xF0,
0x90, 0x26, 0x02, 0x74, 0x01, 0xF0, 0x22, 0xE4, 0xF0, 0xA3, 0xF0, 0xA3, 0xF0, 0xA3, 0xF0, 0xA3,
0xF0, 0x22, 0x90, 0x28, 0x95, 0xE0, 0x54, 0x3F, 0xFE, 0x90, 0x28, 0x94, 0xE0, 0x90, 0x81, 0xF8,
0xFD, 0xED, 0xFF, 0xE4, 0xFC, 0xFD, 0x02, 0x07, 0xDC, 0x90, 0x23, 0xE0, 0x74, 0x06, 0xF0, 0x90,
0x80, 0xB5, 0x74, 0x01, 0xF0, 0x22, 0xD3, 0x90, 0x80, 0x63, 0xE0, 0x94, 0x88, 0x90, 0x80, 0x62,
0xE0, 0x94, 0x13, 0x22, 0xF9, 0xF8, 0x12, 0x39, 0x03, 0x90, 0x81, 0xA6, 0x12, 0x07, 0xDC, 0x90,
0x81, 0xA6, 0x02, 0x07, 0x41, 0x7E, 0x80, 0xE4, 0xFF, 0xFD, 0xFC, 0x78, 0x26, 0x02, 0x07, 0x4D,
0x90, 0x80, 0x51, 0x12, 0x07, 0x41, 0xEC, 0x4D, 0x4E, 0x4F, 0x22, 0x12, 0x06, 0xB9, 0x90, 0x82,
0x00, 0x12, 0x07, 0xDC, 0x90, 0x82, 0x00, 0x02, 0x07, 0x41, 0x90, 0x23, 0xF2, 0x74, 0xC0, 0xF0,
0x22, 0x90, 0x2C, 0x1E, 0xF0, 0xA3, 0xE4, 0xF0, 0x90, 0x2C, 0xFE, 0x74, 0x03, 0xF0, 0x22, 0x12,
0x02, 0x2F, 0x90, 0x82, 0x04, 0x12, 0x07, 0xDC, 0x90, 0x82, 0x04, 0x02, 0x07, 0x41, 0xE4, 0xFF,
0xFE, 0xFD, 0x7C, 0x4D, 0x12, 0x07, 0x5A, 0x12, 0x01, 0x26, 0x02, 0x03, 0x77, 0x78, 0x26, 0x12,
0x07, 0x4D, 0xC3, 0xE4, 0x9B, 0xFF, 0xE4, 0x9A, 0xFE, 0x74, 0x01, 0x99, 0xFD, 0xE4, 0x98, 0xFC,
0x78, 0x26, 0x02, 0x07, 0xD0, 0xE4, 0x7F, 0x05, 0xFE, 0xFD, 0xFC, 0x12, 0x07, 0x5A, 0xC3, 0x02,
0x06, 0xEA, 0x90, 0x2D, 0xC4, 0xE0, 0x54, 0x07, 0x22, 0x90, 0x81, 0x40, 0x12, 0x07, 0x41, 0x90,
0x81, 0xBE, 0x12, 0x07, 0xDC, 0x90, 0x2C, 0x3D, 0xE0, 0x44, 0x01, 0xF0, 0x7F, 0x05, 0x22, 0xEF,
0xF0, 0x90, 0x80, 0xBB, 0x12, 0x07, 0x41, 0x78, 0x08, 0x02, 0x06, 0xFB, 0xD3, 0x90, 0x80, 0x63,
0xE0, 0x94, 0x70, 0x90, 0x80, 0x62, 0xE0, 0x94, 0x17, 0x22, 0xF0, 0x90, 0x2C, 0xFE, 0x74, 0xFF,
0xF0, 0x22, 0x90, 0x82, 0x06, 0xE0, 0xFE, 0xA3, 0xE0, 0xFF, 0xC3, 0x22, 0xF0, 0x74, 0x01, 0x90,
0x2C, 0x00, 0xF0, 0x90, 0x26, 0x00, 0x22, 0x12, 0x07, 0x41, 0x78, 0x10, 0x12, 0x06, 0xFB, 0x90,
0x27, 0x5A, 0xEF, 0xF0, 0x22, 0x12, 0x06, 0xB9, 0x78, 0x26, 0x12, 0x07, 0xD0, 0x90, 0x26, 0x03,
0xE0, 0x54, 0x7F, 0xF0, 0x22, 0x90, 0x82, 0x14, 0xE0, 0x04, 0xF0, 0x90, 0x82, 0x1C, 0xE0, 0x24,
0x58, 0xFF, 0x90, 0x82, 0x1B, 0xE0, 0x34, 0x1B, 0x22, 0x90, 0x80, 0x62, 0xE0, 0xFC, 0xA3, 0xE0,
0xFD, 0xE4, 0x02, 0x03, 0x3E, 0xF0, 0x74, 0xF8, 0x90, 0x21, 0x01, 0xF0, 0x90, 0x27, 0x01, 0x22,
0xE0, 0xFE, 0xA3, 0xE0, 0xFF, 0x24, 0xF7, 0x90, 0x28, 0x90, 0xF0, 0xEF, 0x24, 0xF7, 0xEE, 0x34,
0xFF, 0x22, 0x90, 0x80, 0x55, 0x74, 0x01, 0xF0, 0x90, 0x23, 0xE0, 0x74, 0x04, 0xF0, 0x22, 0x12,
0x07, 0x41, 0x78, 0x18, 0x12, 0x06, 0xFB, 0x90, 0x27, 0x5B, 0x22, 0x90, 0x21, 0x00, 0xF0, 0x90,
0x27, 0x00, 0x22, 0x90, 0x28, 0x32, 0x74, 0x01, 0xF0, 0x22, 0x90, 0x23, 0x01, 0xF0, 0x90, 0x1F,
0x01, 0xE0, 0x54, 0xEF, 0xF0, 0x90, 0x1F, 0x21, 0xE0, 0x22, 0xF0, 0x90, 0x2C, 0x00, 0xE0, 0x44,
0x01, 0xF0, 0x90, 0x26, 0x00, 0xE0, 0x44, 0x01, 0x22, 0x78, 0x37, 0xE6, 0x54, 0x01, 0xF4, 0x54,
0x01, 0xFF, 0xE6, 0x54, 0xFE, 0x4F, 0xF6, 0x22, 0x12, 0x07, 0x41, 0x12, 0x05, 0xDD, 0x90, 0x80,
0x4D, 0x12, 0x07, 0xDC, 0xE4, 0x22, 0x90, 0x82, 0x1C, 0xE0, 0x24, 0xB8, 0xFF, 0x90, 0x82, 0x1B,
0xE0, 0x34, 0x0B, 0x22, 0x12, 0x07, 0x41, 0x02, 0x03, 0x77, 0x90, 0x80, 0xD4, 0x12, 0x07, 0x41,
0x90, 0x82, 0x2A, 0x02, 0x07, 0xDC, 0x90, 0x80, 0xBB, 0x12, 0x07, 0xDC, 0x90, 0x80, 0xBB, 0x02,
0x07, 0x41, 0x90, 0x80, 0xCA, 0xE0, 0xFF, 0xE4, 0xFC, 0xFD, 0xFE, 0x90, 0x80, 0x91, 0x22, 0xF0,
0x90, 0x1F, 0x20, 0xE0, 0x54, 0xFE, 0xF0, 0x90, 0x23, 0x02, 0x22, 0xE4, 0xFF, 0xFE, 0xFD, 0xFC,
0x02, 0x07, 0x5A, 0xF0, 0x90, 0x23, 0xE0, 0x74, 0x06, 0xF0, 0x22, 0xE0, 0xFE, 0xA3, 0xE0, 0xFF,
0xD3, 0x22, 0x90, 0x80, 0x64, 0x12, 0x07, 0x5A, 0x02, 0x02, 0x2F, 0xE4, 0xFC, 0xFD, 0x90, 0x81,
0xF4, 0x02, 0x07, 0xDC, 0x90, 0x81, 0xA6, 0x02, 0x07, 0xDC, 0x12, 0x07, 0x41, 0x90, 0x81, 0xCD,
0x02, 0x07, 0x5A, 0x12, 0x08, 0x3E, 0xAE, 0x07, 0x0F, 0x8E, 0x82, 0x75, 0x83, 0x00, 0x12, 0x04,
0xEE, 0x90, 0x2C, 0x30, 0xF0, 0xAE, 0x07, 0x0F, 0x8E, 0x82, 0x75, 0x83, 0x00, 0x12, 0x04, 0xEE,
0x90, 0x2C, 0x31, 0xF0, 0xAE, 0x07, 0x0F, 0x8E, 0x82, 0x75, 0x83, 0x00, 0x12, 0x04, 0xEE, 0x90,
0x2D, 0xD0, 0xF0, 0xAE, 0x07, 0x0F, 0x8E, 0x82, 0x75, 0x83, 0x00, 0x12, 0x04, 0xEE, 0x90, 0x2D,
0xCC, 0xF0, 0xAE, 0x07, 0x0F, 0x8E, 0x82, 0x75, 0x83, 0x00, 0x12, 0x04, 0xEE, 0x90, 0x2D, 0xD1,
0xF0, 0xAE, 0x07, 0x0F, 0x8E, 0x82, 0x75, 0x83, 0x00, 0x12, 0x04, 0xEE, 0x90, 0x2D, 0xD2, 0xF0,
0xAE, 0x07, 0x0F, 0x8E, 0x82, 0x75, 0x83, 0x00, 0x12, 0x04, 0xEE, 0x90, 0x2D, 0xD3, 0xF0, 0xAE,
0x07, 0x0F, 0x8E, 0x82, 0x75, 0x83, 0x00, 0x12, 0x04, 0xEE, 0x90, 0x2D, 0xD4, 0xF0, 0xAE, 0x07,
0x0F, 0x8E, 0x82, 0x75, 0x83, 0x00, 0x12, 0x04, 0xEE, 0x90, 0x2D, 0xD5, 0xF0, 0xAE, 0x07, 0x0F,
0x8E, 0x82, 0x75, 0x83, 0x00, 0x12, 0x04, 0xEE, 0x90, 0x2D, 0xD6, 0xF0, 0xAE, 0x07, 0x0F, 0x8E,
0x82, 0x75, 0x83, 0x00, 0x12, 0x04, 0xEE, 0x90, 0x2D, 0xD7, 0xF0, 0xAE, 0x07, 0x0F, 0x8E, 0x82,
0x75, 0x83, 0x00, 0x12, 0x04, 0xEE, 0x90, 0x2D, 0xD8, 0xF0, 0xAE, 0x07, 0x0F, 0x8E, 0x82, 0x75,
0x83, 0x00, 0x12, 0x04, 0xEE, 0x90, 0x2D, 0xD9, 0xF0, 0xAE, 0x07, 0x0F, 0x8E, 0x82, 0x75, 0x83,
0x00, 0x12, 0x04, 0xEE, 0x90, 0x2D, 0xDA, 0xF0, 0xAE, 0x07, 0x0F, 0x8E, 0x82, 0x75, 0x83, 0x00,
0x12, 0x04, 0xEE, 0x90, 0x2D, 0xDB, 0xF0, 0xAE, 0x07, 0x0F, 0x8E, 0x82, 0x75, 0x83, 0x00, 0x12,
0x04, 0xEE, 0x90, 0x2D, 0xDC, 0xF0, 0xAE, 0x07, 0x0F, 0x8E, 0x82, 0x75, 0x83, 0x00, 0x12, 0x04,
0xEE, 0x90, 0x2D, 0xDD, 0xF0, 0xAE, 0x07, 0x0F, 0x8E, 0x82, 0x75, 0x83, 0x00, 0x12, 0x04, 0xEE,
0x90, 0x2D, 0xC6, 0xF0, 0xAE, 0x07, 0x0F, 0x8E, 0x82, 0x75, 0x83, 0x00, 0x12, 0x04, 0xEE, 0x90,
0x2D, 0xC7, 0xF0, 0xAE, 0x07, 0x0F, 0x8E, 0x82, 0x75, 0x83, 0x00, 0x12, 0x04, 0xEE, 0x90, 0x2D,
0xC8, 0xF0, 0xAE, 0x07, 0x0F, 0x8E, 0x82, 0x75, 0x83, 0x00, 0x12, 0x04, 0xEE, 0x90, 0x2D, 0xC9,
0xF0, 0xAE, 0x07, 0x0F, 0x8E, 0x82, 0x75, 0x83, 0x00, 0x12, 0x04, 0xEE, 0x90, 0x2D, 0xCA, 0xF0,
0xAE, 0x07, 0x0F, 0x8E, 0x82, 0x75, 0x83, 0x00, 0x02, 0x04, 0xEE, 0x12, 0x02, 0x2F, 0xE4, 0xFB,
0xFA, 0x79, 0x80, 0x78, 0xBF, 0x12, 0x00, 0x35, 0x90, 0x81, 0xBA, 0x12, 0x07, 0xDC, 0xE4, 0xFF,
0xFE, 0x7D, 0x80, 0x7C, 0x4C, 0x90, 0x81, 0xBA, 0x12, 0x07, 0x5A, 0x12, 0x01, 0x26, 0x12, 0x03,
0x77, 0x90, 0x81, 0x8E, 0x12, 0x07, 0xDC, 0x90, 0x81, 0x8E, 0x12, 0x07, 0x41, 0x90, 0x28, 0x10,
0xEF, 0xF0, 0x90, 0x81, 0x8E, 0x12, 0x07, 0x41, 0x78, 0x08, 0x12, 0x06, 0xFB, 0x90, 0x28, 0x11,
0xEF, 0xF0, 0x90, 0x81, 0x8E, 0x12, 0x07, 0x41, 0x78, 0x10, 0x12, 0x06, 0xFB, 0x90, 0x28, 0x12,
0xEF, 0xF0, 0x90, 0x81, 0x8E, 0x02, 0x07, 0x41, 0xF0, 0x7D, 0x7A, 0x7C, 0x45, 0xE4, 0xFF, 0xFE,
0x90, 0x81, 0x8A, 0x12, 0x07, 0x5A, 0x02, 0x02, 0xCC, 0xE4, 0xFF, 0xFE, 0xFD, 0x7C, 0x4D, 0x12,
0x07, 0x5A, 0x12, 0x01, 0x26, 0x12, 0x03, 0x77, 0x90, 0x81, 0x40, 0x12, 0x07, 0xDC, 0x90, 0x81,
0x40, 0x02, 0x07, 0x41, 0x12, 0x01, 0x26, 0xE4, 0xFB, 0xFA, 0xF9, 0x78, 0x40, 0x12, 0x01, 0x26,
0x90, 0x81, 0x8A, 0x12, 0x07, 0xDC, 0x78, 0x40, 0x90, 0x80, 0x64, 0xE4, 0xFB, 0xFA, 0xF9, 0x12,
0x07, 0x41, 0x02, 0x02, 0x2F, 0x90, 0x2D, 0xE3, 0xF0, 0x90, 0x80, 0x98, 0xE0, 0xC4, 0x33, 0x54,
0xE0, 0x44, 0x07, 0x90, 0x2D, 0xE0, 0xF0, 0xA3, 0x74, 0x76, 0xF0, 0x90, 0x2C, 0xA0, 0x74, 0x03,
0xF0, 0x90, 0x2C, 0xA4, 0x74, 0x0F, 0xF0, 0x90, 0x2D, 0xE2, 0x74, 0x03, 0xF0, 0x22, 0xE0, 0xFF,
0x90, 0x80, 0x90, 0xE0, 0xC4, 0x33, 0x54, 0xE0, 0xFE, 0xEF, 0x4E, 0x22, 0xF0, 0x90, 0x28, 0x93,
0xE0, 0x54, 0x01, 0xFE, 0x90, 0x28, 0x92, 0xE0, 0xFD, 0xEE, 0xFC, 0xE4, 0x12, 0x03, 0x3E, 0x90,
0x81, 0x8A, 0x02, 0x07, 0xDC, 0x78, 0x18, 0x12, 0x06, 0xFB, 0x90, 0x28, 0x13, 0xEF, 0xF0, 0x90,
0x27, 0x03, 0xE0, 0x44, 0x10, 0xF0, 0x22, 0xE4, 0xFF, 0xFE, 0x7D, 0x80, 0x7C, 0x41, 0x90, 0x81,
0xF4, 0x12, 0x07, 0x5A, 0x12, 0x01, 0x26, 0x02, 0x03, 0x77, 0xE4, 0xF0, 0xA3, 0xF0, 0xA3, 0xF0,
0xA3, 0xF0, 0x22, 0x90, 0x81, 0x8A, 0x12, 0x07, 0x5A, 0x12, 0x02, 0x2F, 0xE4, 0xFB, 0xFA, 0x79,
0x80, 0x78, 0xBF, 0x12, 0x00, 0x35, 0x90, 0x81, 0xBA, 0x02, 0x07, 0xDC, 0xF0, 0x90, 0x1F, 0x20,
0xE0, 0x44, 0x04, 0xF0, 0x22, 0x90, 0x81, 0xF5, 0x12, 0x07, 0x41, 0x02, 0x03, 0x77, 0x90, 0x80,
0x62, 0xE0, 0xFC, 0xA3, 0xE0, 0xFD, 0xE4, 0x02, 0x03, 0x3E, 0x90, 0x80, 0x5C, 0x74, 0xFF, 0x12,
0x05, 0x82, 0x90, 0x80, 0x5D, 0xE0, 0x22, 0x90, 0x1F, 0x02, 0xE0, 0x54, 0xE3, 0xF0, 0x90, 0x1F,
0x04, 0xE0, 0x54, 0xF8, 0xF0, 0x90, 0x1F, 0x03, 0xE0, 0x54, 0xFC, 0x22, 0x90, 0x1F, 0x26, 0x74,
0x0F, 0xF0, 0xA3, 0xE4, 0xF0, 0x90, 0x1F, 0x24, 0x74, 0x0E, 0xF0, 0xA3, 0xE4, 0xF0, 0x22, 0xE4,
0xFF, 0x04, 0x90, 0x2C, 0x00, 0xF0, 0x90, 0x26, 0x00, 0x22, 0xE0, 0x44, 0x01, 0xF0, 0x90, 0x28,
0x8C, 0xE0, 0x44, 0x01, 0x22, 0x74, 0x40, 0xF0, 0xA3, 0xE4, 0xF0, 0xA3, 0x22, 0xF0, 0x90, 0x80,
0xCA, 0xE0, 0xFE, 0x44, 0xB0, 0x90, 0x2D, 0xC4, 0xF0, 0x22, 0xF0, 0x90, 0x1F, 0x22, 0xE0, 0x54,
0xC5, 0xF0, 0x90, 0x80, 0xD3, 0xE0, 0x22, 0x90, 0x28, 0x95, 0xE0, 0xFE, 0x90, 0x28, 0x94, 0xE0,
0xFD, 0xED, 0xFF, 0x22, 0x7D, 0x3B, 0x7F, 0x00, 0x7E, 0x80, 0x7C, 0x45, 0x22, 0x90, 0x81, 0xD5,
0x12, 0x07, 0x41, 0xE4, 0x02, 0x03, 0x39, 0xF0, 0x90, 0x80, 0x64, 0x02, 0x07, 0x5A, 0xE4, 0xFF,
0xFE, 0xFD, 0x02, 0x07, 0x5A, 0xF0, 0x90, 0x27, 0x02, 0x74, 0xFF, 0xF0, 0xA3, 0x74, 0x7F, 0x22,
0xF0, 0x90, 0x1F, 0x46, 0x74, 0x06, 0xF0, 0xA3, 0xE4, 0xF0, 0x22, 0x74, 0x08, 0xF0, 0xA3, 0xE4,
0xF0, 0x22, 0xEE, 0xF0, 0xA3, 0xEF, 0xF0, 0xC3, 0xE0, 0x94, 0xF4, 0x22, 0xE0, 0x94, 0xDC, 0x90,
0x82, 0x03, 0xE0, 0x94, 0x05, 0x22, 0x90, 0x20, 0xEE, 0xE0, 0x20, 0xE5, 0xF9, 0x90, 0x27, 0x05,
0x74, 0x90, 0xF0, 0x90, 0x27, 0x34, 0xE0, 0x20, 0xE0, 0x03, 0x74, 0x70, 0xF0, 0x74, 0x54, 0x12,
0x0D, 0x3D, 0x12, 0x0F, 0xA3, 0x90, 0x26, 0x8B, 0x74, 0x05, 0xF0, 0x74, 0xA8, 0x12, 0x0D, 0xF8,
0x12, 0x0D, 0xBE, 0xE4, 0xF0, 0x90, 0x80, 0x56, 0xE0, 0x60, 0x0C, 0x90, 0x80, 0x55, 0xE0, 0x90,
0x23, 0xF2, 0x74, 0x10, 0xF0, 0x80, 0x03, 0x12, 0x0E, 0x7A, 0x12, 0x0D, 0x9B, 0x90, 0x80, 0x8C,
0xE0, 0x70, 0x16, 0x7F, 0x07, 0xFE, 0xFD, 0xFC, 0x12, 0x39, 0xC9, 0x90, 0x26, 0x3C, 0x74, 0x04,
0xF0, 0x74, 0x07, 0x12, 0x0D, 0x49, 0x12, 0x0E, 0x00, 0x90, 0x26, 0x15, 0xE0, 0x20, 0xE4, 0x11,
0x90, 0x23, 0xF9, 0xE0, 0x20, 0xE0, 0x0A, 0x7F, 0x05, 0x12, 0x0D, 0x94, 0x12, 0x3A, 0xB5, 0x80,
0xE8, 0x90, 0x80, 0x8C, 0xE0, 0x60, 0x03, 0x12, 0x24, 0xAE, 0x90, 0x80, 0xC3, 0xE0, 0x60, 0x06,
0x90, 0x80, 0xC4, 0x74, 0x01, 0xF0, 0x90, 0x26, 0x15, 0xE0, 0x20, 0xE4, 0x03, 0x02, 0x16, 0x0E,
0xE4, 0x90, 0x80, 0x8C, 0xF0, 0x90, 0x80, 0xC4, 0xF0, 0x90, 0x80, 0xC3, 0xF0, 0x90, 0x26, 0x3C,
0x74, 0x04, 0xF0, 0xA3, 0x74, 0x0A, 0x12, 0x0D, 0x4A, 0x90, 0x26, 0x02, 0x74, 0x01, 0x12, 0x0D,
0x91, 0x12, 0x3A, 0xB5, 0x90, 0x80, 0x56, 0xE0, 0x70, 0x03, 0x02, 0x15, 0x7D, 0x12, 0x0D, 0x92,
0x12, 0x39, 0xC9, 0x12, 0x0D, 0x56, 0x90, 0x26, 0x2E, 0x12, 0x0D, 0xD7, 0x12, 0x0F, 0x35, 0xE4,
0x90, 0x81, 0xF4, 0xF0, 0xFF, 0x7E, 0x06, 0x12, 0x0E, 0x59, 0xD3, 0x12, 0x06, 0xEA, 0x40, 0x43,
0x12, 0x0E, 0x55, 0xC3, 0x12, 0x06, 0xEA, 0x50, 0x3A, 0x12, 0x0E, 0xFD, 0x40, 0x07, 0xE4, 0x7B,
0xB0, 0x7A, 0x04, 0x80, 0x10, 0x12, 0x0E, 0x36, 0xE4, 0x40, 0x06, 0x7B, 0x40, 0x7A, 0x06, 0x80,
0x04, 0x7B, 0x60, 0x7A, 0x09, 0xF9, 0xF8, 0xC0, 0x00, 0x78, 0x26, 0x12, 0x07, 0x35, 0xD0, 0x00,
0x12, 0x06, 0x27, 0xC3, 0x90, 0x80, 0x63, 0xE0, 0x9F, 0xF0, 0x90, 0x80, 0x62, 0xE0, 0x9E, 0xF0,
0x02, 0x15, 0x5D, 0x7E, 0xFA, 0x12, 0x0E, 0x57, 0xC3, 0x12, 0x06, 0xEA, 0x50, 0x45, 0x12, 0x0E,
0x55, 0xD3, 0x12, 0x06, 0xEA, 0x40, 0x3C, 0x12, 0x0E, 0xAD, 0x12, 0x0E, 0xFC, 0x40, 0x07, 0xE4,
0x7B, 0xB0, 0x7A, 0x04, 0x80, 0x10, 0x12, 0x0E, 0x36, 0xE4, 0x40, 0x06, 0x7B, 0x40, 0x7A, 0x06,
0x80, 0x04, 0x7B, 0x60, 0x7A, 0x09, 0xF9, 0xF8, 0xC0, 0x00, 0x78, 0x26, 0x12, 0x07, 0x35, 0xD0,
0x00, 0x12, 0x06, 0x27, 0x90, 0x80, 0x62, 0xEE, 0x8F, 0xF0, 0x12, 0x05, 0x82, 0x90, 0x81, 0xF4,
0x74, 0x01, 0xF0, 0x90, 0x81, 0xF4, 0xE0, 0x60, 0x14, 0x90, 0x80, 0xDD, 0x12, 0x0E, 0xC5, 0x50,
0x0C, 0x12, 0x0F, 0x82, 0x90, 0x80, 0xDD, 0x12, 0x07, 0x9B, 0x02, 0x16, 0x32, 0xE4, 0x90, 0x80,
0xB0, 0x12, 0x10, 0x33, 0x90, 0x20, 0xC4, 0xE0, 0x44, 0x10, 0xF0, 0x90, 0x23, 0xE0, 0xE0, 0x64,
0x06, 0x70, 0x28, 0x12, 0x3B, 0xF5, 0xC0, 0x04, 0xC0, 0x05, 0xC0, 0x06, 0xC0, 0x07, 0x12, 0x0F,
0xFA, 0xD0, 0x07, 0xD0, 0x06, 0xD0, 0x05, 0xD0, 0x04, 0x12, 0x38, 0xBE, 0x12, 0x10, 0x06, 0x90,
0x20, 0xDC, 0x12, 0x0E, 0xEF, 0xE4, 0x90, 0x20, 0xDD, 0xEF, 0xF0, 0x90, 0x80, 0x56, 0xE0, 0xFB,
0x60, 0x0F, 0xE4, 0x90, 0x80, 0x55, 0xF0, 0x90, 0x80, 0xD9, 0x12, 0x08, 0x01, 0x00, 0x00, 0x00,
0x00, 0xEB, 0x60, 0x28, 0x90, 0x81, 0xF4, 0xE0, 0x60, 0x13, 0x12, 0x0C, 0x99, 0x90, 0x21, 0x01,
0x74, 0xF8, 0x12, 0x0F, 0xBA, 0x12, 0x0D, 0x4A, 0x12, 0x0E, 0x00, 0x80, 0x0F, 0xE4, 0x90, 0x80,
0x97, 0xF0, 0x90, 0x80, 0xDD, 0x12, 0x08, 0x01, 0x00, 0x00, 0x00, 0x00, 0x12, 0x3B, 0x72, 0x90,
0x80, 0x62, 0xE0, 0xFE, 0xA3, 0xE0, 0x90, 0x20, 0xD1, 0xF0, 0xEE, 0xA3, 0xF0, 0x22, 0x90, 0x80,
0x56, 0xE0, 0x70, 0x03, 0x02, 0x16, 0xC2, 0x90, 0x80, 0xDD, 0x12, 0x07, 0x41, 0xE4, 0x7B, 0x05,
0xFA, 0xF9, 0xF8, 0xD3, 0x12, 0x06, 0xEA, 0x40, 0x3B, 0x12, 0x0F, 0x82, 0x90, 0x80, 0xDD, 0x12,
0x07, 0x66, 0x90, 0x80, 0x70, 0x75, 0xF0, 0x04, 0xEF, 0x12, 0x08, 0x32, 0xEE, 0x25, 0xE0, 0x25,
0xE0, 0x25, 0x83, 0xF5, 0x83, 0x12, 0x07, 0x41, 0x90, 0x80, 0x62, 0xEE, 0xF0, 0xA3, 0xEF, 0xF0,
0x12, 0x0C, 0x9F, 0x90, 0x26, 0x0D, 0x74, 0x80, 0x12, 0x0F, 0x65, 0xE0, 0x44, 0x10, 0x12, 0x0F,
0xBA, 0x02, 0x16, 0xBB, 0x90, 0x80, 0xA5, 0xE0, 0x70, 0x29, 0x04, 0xF0, 0x90, 0x80, 0xAE, 0xF0,
0x90, 0x80, 0xC3, 0xF0, 0x90, 0x80, 0x62, 0x74, 0x0F, 0xF0, 0xA3, 0x74, 0xA0, 0xF0, 0x12, 0x0F,
0x59, 0x90, 0x81, 0x8A, 0x12, 0x07, 0xDC, 0x12, 0x20, 0xB2, 0x90, 0x23, 0xE0, 0x74, 0x04, 0x12,
0x0D, 0x4A, 0x22, 0xE4, 0xFF, 0xFE, 0xFD, 0xFC, 0x90, 0x80, 0xB1, 0x12, 0x0E, 0xCB, 0x70, 0x22,
0x12, 0x2E, 0x59, 0x90, 0x80, 0x55, 0x74, 0x01, 0xF0, 0x12, 0x0C, 0x99, 0x90, 0x26, 0x0D, 0x74,
0x80, 0xF0, 0x90, 0x27, 0x01, 0xE0, 0x44, 0x10, 0x12, 0x0F, 0x1C, 0x12, 0x0D, 0x4A, 0x12, 0x0E,
0x00, 0x22, 0x90, 0x23, 0xE0, 0xE4, 0xF0, 0x22, 0x90, 0x21, 0x00, 0x74, 0xFF, 0xF0, 0x90, 0x27,
0x00, 0xF0, 0x90, 0x28, 0x22, 0x74, 0x02, 0xF0, 0x90, 0x28, 0x9E, 0x74, 0x56, 0xF0, 0x90, 0x21,
0x01, 0x74, 0xFF, 0xF0, 0x90, 0x27, 0x01, 0xF0, 0x90, 0x21, 0x02, 0xF0, 0xA3, 0xF0, 0x90, 0x80,
0xD0, 0xE0, 0x90, 0x27, 0x1C, 0xF0, 0x90, 0x80, 0x59, 0xE0, 0xFD, 0x44, 0x22, 0x90, 0x27, 0x04,
0xF0, 0x90, 0x80, 0xD1, 0xE0, 0xFE, 0xA3, 0xE0, 0x90, 0x28, 0xE8, 0xF0, 0xEE, 0xA3, 0xF0, 0xED,
0x70, 0x1A, 0x90, 0x27, 0x05, 0x74, 0x50, 0xF0, 0x90, 0x27, 0x08, 0xE4, 0xF0, 0xA3, 0xF0, 0xA3,
0x74, 0x80, 0xF0, 0xA3, 0x14, 0xF0, 0xA3, 0xE4, 0xF0, 0xA3, 0x80, 0x2C, 0x90, 0x27, 0x05, 0x74,
0x80, 0xF0, 0x90, 0x27, 0x08, 0xF0, 0x90, 0x80, 0xA3, 0xE0, 0x90, 0x27, 0x09, 0xB4, 0x01, 0x04,
0x74, 0x7F, 0x80, 0x02, 0x74, 0x0E, 0xF0, 0x90, 0x27, 0x0C, 0xF0, 0x90, 0x27, 0x0A, 0x74, 0xA9,
0xF0, 0xA3, 0x74, 0x7F, 0xF0, 0x90, 0x27, 0x0D, 0x74, 0xA9, 0xF0, 0x90, 0x27, 0x0E, 0xE4, 0xF0,
0xA3, 0xF0, 0xA3, 0xF0, 0xA3, 0x74, 0x98, 0xF0, 0xA3, 0x74, 0x80, 0xF0, 0xA3, 0xF0, 0xA3, 0x74,
0xA0, 0xF0, 0xA3, 0x74, 0x23, 0xF0, 0x90, 0x27, 0x20, 0x74, 0x28, 0xF0, 0x90, 0x27, 0x24, 0xF0,
0x90, 0x27, 0x21, 0xE4, 0xF0, 0x90, 0x27, 0x25, 0xF0, 0x90, 0x27, 0x2A, 0x74, 0x2B, 0xF0, 0x90,
0x27, 0x29, 0x74, 0x0E, 0xF0, 0x90, 0x27, 0x28, 0x74, 0x51, 0xF0, 0x90, 0x80, 0x8D, 0xE0, 0x90,
0x27, 0x34, 0x30, 0xE0, 0x05, 0x74, 0x30, 0xF0, 0x80, 0x03, 0x74, 0x01, 0xF0, 0x90, 0x27, 0x32,
0xE4, 0xF0, 0xA3, 0xF0, 0x90, 0x80, 0xD0, 0xE0, 0x90, 0x27, 0x35, 0x30, 0xE0, 0x05, 0x74, 0x20,
0xF0, 0x80, 0x03, 0x74, 0x10, 0xF0, 0x90, 0x27, 0x36, 0x74, 0x24, 0xF0, 0x90, 0x80, 0x95, 0xE0,
0x90, 0x27, 0x4A, 0x30, 0xE0, 0x05, 0x74, 0x03, 0xF0, 0x80, 0x02, 0xE4, 0xF0, 0x90, 0x81, 0x7D,
0x12, 0x08, 0x01, 0x3F, 0x33, 0x33, 0x33, 0x90, 0x80, 0xF3, 0x12, 0x08, 0x01, 0x3F, 0x73, 0x33,
0x33, 0x90, 0x81, 0xD5, 0x12, 0x08, 0x01, 0x00, 0x00, 0x00, 0x80, 0x12, 0x13, 0x9D, 0x90, 0x81,
0x7D, 0x12, 0x12, 0xD1, 0x90, 0x80, 0xEE, 0xEF, 0xF0, 0x12, 0x13, 0x9D, 0x90, 0x80, 0xF3, 0x12,
0x12, 0xD1, 0x90, 0x81, 0x37, 0xEF, 0xF0, 0x90, 0x80, 0xEE, 0xE0, 0x90, 0x27, 0x4B, 0xF0, 0x90,
0x81, 0x37, 0xE0, 0x90, 0x27, 0x4C, 0xF0, 0xA3, 0x74, 0x70, 0xF0, 0x90, 0x80, 0xCD, 0xE0, 0x90,
0x80, 0x64, 0x60, 0x08, 0x12, 0x07, 0x5A, 0x90, 0x80, 0x5E, 0x80, 0x06, 0x12, 0x07, 0x5A, 0x90,
0x80, 0x48, 0x12, 0x12, 0x5F, 0x90, 0x80, 0xEA, 0x12, 0x07, 0xDC, 0x90, 0x80, 0xEA, 0x12, 0x12,
0x29, 0x90, 0x27, 0x58, 0xEF, 0xF0, 0x12, 0x12, 0x3E, 0x78, 0x08, 0x12, 0x06, 0xFB, 0x90, 0x27,
0x59, 0xEF, 0xF0, 0x12, 0x12, 0x3E, 0x78, 0x10, 0x12, 0x06, 0xFB, 0x90, 0x27, 0x5A, 0xEF, 0xF0,
0x12, 0x12, 0x3E, 0x78, 0x18, 0x12, 0x06, 0xFB, 0x90, 0x27, 0x5B, 0xEF, 0xF0, 0x90, 0x80, 0x98,
0xE0, 0x90, 0x27, 0x62, 0xF0, 0xA3, 0x74, 0x01, 0xF0, 0x90, 0x80, 0x8E, 0xE0, 0x25, 0xE0, 0x25,
0xE0, 0xFF, 0x90, 0x80, 0xD0, 0xE0, 0xFE, 0x33, 0x33, 0x33, 0x54, 0xF8, 0x4F, 0x44, 0x01, 0x90,
0x27, 0x64, 0xF0, 0xA3, 0x74, 0x22, 0xF0, 0x90, 0x27, 0x82, 0x74, 0xA9, 0xF0, 0xA3, 0x74, 0x03,
0xF0, 0x90, 0x27, 0x96, 0x74, 0x11, 0xF0, 0x90, 0x27, 0x84, 0x74, 0x50, 0xF0, 0x90, 0x28, 0xEA,
0xF0, 0xA3, 0xE4, 0xF0, 0x90, 0x27, 0x98, 0x74, 0x50, 0xF0, 0xA3, 0x74, 0x04, 0xF0, 0x90, 0x27,
0x8C, 0x74, 0x60, 0xF0, 0xA3, 0x74, 0x15, 0xF0, 0x90, 0x28, 0x9E, 0x74, 0x56, 0xF0, 0x90, 0x27,
0xA6, 0x74, 0x02, 0xF0, 0x90, 0x28, 0x00, 0x74, 0x91, 0xF0, 0xA3, 0x74, 0x30, 0xF0, 0x74, 0x35,
0xF0, 0xA3, 0x74, 0x20, 0xF0, 0xA3, 0x74, 0x50, 0xF0, 0xA3, 0x74, 0x54, 0xF0, 0xA3, 0x74, 0x30,
0x12, 0x13, 0xA7, 0xE4, 0xFF, 0xFE, 0x7D, 0x7A, 0x7C, 0x45, 0x12, 0x02, 0x2F, 0x90, 0x81, 0xB6,
0x12, 0x07, 0xDC, 0x90, 0x28, 0xA4, 0x74, 0xC4, 0xF0, 0xA3, 0x74, 0xFF, 0xF0, 0x90, 0x81, 0xA0,
0x12, 0x08, 0x01, 0x3A, 0x83, 0x12, 0x6F, 0x90, 0x28, 0xAC, 0x74, 0x04, 0xF0, 0x90, 0x28, 0xA7,
0x74, 0x43, 0xF0, 0xA3, 0xE4, 0xF0, 0xA3, 0xF0, 0xA3, 0x74, 0x64, 0xF0, 0x90, 0x80, 0x62, 0xE0,
0xFC, 0xA3, 0xE0, 0xFD, 0x12, 0x12, 0xAB, 0x7C, 0x40, 0x90, 0x81, 0x8A, 0x12, 0x13, 0xAE, 0x12,
0x01, 0x26, 0xA8, 0x04, 0xA9, 0x05, 0xAA, 0x06, 0xAB, 0x07, 0x90, 0x80, 0x64, 0x12, 0x07, 0x41,
0x12, 0x11, 0xBB, 0x12, 0x12, 0xB5, 0x90, 0x28, 0x8E, 0x74, 0x45, 0xF0, 0xA3, 0x74, 0x30, 0xF0,
0x90, 0x28, 0x96, 0xE0, 0x44, 0x01, 0xF0, 0x90, 0x28, 0x98, 0x74, 0x03, 0xF0, 0x90, 0x28, 0x9A,
0xE4, 0xF0, 0xA3, 0x04, 0x12, 0x13, 0x5D, 0xF0, 0x90, 0x28, 0x14, 0x74, 0x01, 0x12, 0x13, 0xB5,
0x12, 0x13, 0xB5, 0xF0, 0x90, 0x28, 0x32, 0x74, 0x01, 0xF0, 0x22, 0xE4, 0x90, 0x81, 0xF4, 0xF0,
0x90, 0x20, 0xEE, 0xE0, 0x20, 0xE6, 0xF9, 0x90, 0x80, 0xA6, 0xE0, 0x60, 0x37, 0x90, 0x80, 0xB5,
0xE0, 0x60, 0x31, 0x90, 0x80, 0xCA, 0xE0, 0x04, 0xF0, 0xE0, 0xD3, 0x94, 0x04, 0x40, 0x02, 0xE4,
0xF0, 0x12, 0x10, 0x12, 0x12, 0x0E, 0xCB, 0x70, 0x11, 0x90, 0x80, 0x51, 0x12, 0x08, 0x01, 0x00,
0x00, 0x00, 0x01, 0x90, 0x20, 0xC3, 0xE0, 0x44, 0x02, 0xF0, 0x12, 0x1B, 0xFF, 0xE4, 0x90, 0x80,
0xB5, 0xF0, 0x80, 0x03, 0x12, 0x1B, 0xFF, 0x12, 0x0D, 0x41, 0x12, 0x0F, 0xA3, 0x90, 0x26, 0x3C,
0x74, 0x08, 0xF0, 0xA3, 0x74, 0x0E, 0x12, 0x0D, 0xFF, 0xE4, 0x12, 0x0F, 0x1F, 0xF0, 0x90, 0x2D,
0xC4, 0xE0, 0x44, 0x08, 0x12, 0x0E, 0x87, 0x90, 0x2C, 0x00, 0x12, 0x0E, 0x86, 0x74, 0x12, 0x12,
0x0E, 0x81, 0x90, 0x2C, 0x22, 0x74, 0x40, 0xF0, 0xA3, 0x74, 0x1D, 0xF0, 0x90, 0x2C, 0x20, 0xE4,
0xF0, 0xA3, 0x74, 0x04, 0xF0, 0x90, 0x2C, 0xFE, 0x14, 0xF0, 0x74, 0x08, 0x12, 0x0E, 0x81, 0xF0,
0xF0, 0x90, 0x2D, 0xCE, 0x74, 0x75, 0xF0, 0x74, 0x71, 0x12, 0x0E, 0x87, 0x90, 0x80, 0xA6, 0xE0,
0x60, 0x10, 0x90, 0x80, 0xB5, 0xE0, 0x60, 0x0A, 0x90, 0x81, 0x85, 0xE0, 0x90, 0x23, 0xF2, 0xF0,
0x80, 0x03, 0x12, 0x0E, 0x7A, 0x12, 0x0D, 0x9B, 0x90, 0x2D, 0x6C, 0xE0, 0x20, 0xE0, 0x1E, 0xA3,
0xE0, 0x20, 0xE0, 0x19, 0x90, 0x23, 0xF9, 0xE0, 0x30, 0xE0, 0x08, 0x90, 0x81, 0xF4, 0x74, 0x01,
0xF0, 0x80, 0x0A, 0x7F, 0x05, 0x12, 0x0D, 0x94, 0x12, 0x3A, 0xB5, 0x80, 0xDB, 0x12, 0x2B, 0xA1,
0xBF, 0x01, 0x0A, 0x90, 0x81, 0xC2, 0x12, 0x08, 0x01, 0x00, 0x00, 0x00, 0x00, 0x90, 0x2D, 0x6D,
0xE0, 0x30, 0xE0, 0x41, 0x90, 0x80, 0xA6, 0xE0, 0x60, 0x31, 0x12, 0x0E, 0x60, 0x70, 0x2C, 0x90,
0x80, 0xCA, 0xE0, 0xB4, 0x03, 0x06, 0x90, 0x80, 0xB6, 0xE0, 0x04, 0xF0, 0x90, 0x80, 0xB6, 0xE0,
0xC3, 0x94, 0x02, 0xE4, 0x50, 0x08, 0x90, 0x80, 0xB5, 0x12, 0x10, 0x33, 0x80, 0x12, 0x90, 0x80,
0xB6, 0xF0, 0x90, 0x80, 0xB5, 0x04, 0x12, 0x0F, 0x87, 0x80, 0x05, 0x90, 0x23, 0xE0, 0xE4, 0xF0,
0x12, 0x0F, 0x1D, 0xE4, 0xF0, 0x90, 0x2D, 0x6C, 0xE0, 0x30, 0xE0, 0x23, 0x90, 0x81, 0xE4, 0xE0,
0xB4, 0x01, 0x0E, 0xE4, 0xF0, 0x90, 0x81, 0xBE, 0x12, 0x07, 0x41, 0x90, 0x81, 0x40, 0x12, 0x07,
0xDC, 0x90, 0x23, 0xE0, 0x74, 0x07, 0xF0, 0xE4, 0x90, 0x81, 0xD9, 0xF0, 0x02, 0x1B, 0xEB, 0x90,
0x81, 0xF4, 0xE0, 0x64, 0x01, 0x60, 0x03, 0x02, 0x1B, 0xEB, 0x90, 0x26, 0x15, 0xE0, 0x20, 0xE4,
0x03, 0x02, 0x1B, 0xBF, 0x90, 0x80, 0xA9, 0xE0, 0x64, 0x01, 0x60, 0x03, 0x02, 0x1B, 0xBF, 0x90,
0x80, 0xA6, 0xE0, 0x70, 0x03, 0x02, 0x1B, 0xB1, 0x12, 0x0E, 0x60, 0x70, 0x40, 0x90, 0x81, 0xC6,
0xE0, 0x70, 0x21, 0x04, 0xF0, 0x12, 0x36, 0xAD, 0x90, 0x81, 0xEE, 0xEF, 0xF0, 0xBF, 0x01, 0x14,
0x90, 0x81, 0xE4, 0x74, 0x01, 0xF0, 0x12, 0x29, 0x2D, 0x90, 0x80, 0x91, 0x12, 0x07, 0x41, 0x90,
0x80, 0xCA, 0xEF, 0xF0, 0x12, 0x10, 0x34, 0x90, 0x81, 0xD9, 0xE0, 0x04, 0xF0, 0x12, 0x0E, 0x2F,
0x90, 0x80, 0xC6, 0x12, 0x08, 0x01, 0x00, 0x00, 0x00, 0x00, 0x02, 0x1B, 0xEB, 0x90, 0x80, 0xC6,
0x12, 0x0E, 0xC5, 0x50, 0x30, 0x12, 0x0E, 0x60, 0x60, 0x0A, 0x90, 0x80, 0x51, 0x12, 0x08, 0x01,
0x00, 0x00, 0x00, 0x00, 0x90, 0x80, 0xC6, 0x12, 0x07, 0x41, 0xEF, 0x24, 0x01, 0xFF, 0xE4, 0x3E,
0xFE, 0xE4, 0x3D, 0xFD, 0xE4, 0x3C, 0xFC, 0x90, 0x80, 0xC6, 0x12, 0x07, 0xDC, 0x12, 0x0E, 0x2F,
0x90, 0x81, 0xE4, 0x80, 0x11, 0x12, 0x0D, 0xCC, 0x30, 0xE4, 0x02, 0x80, 0x25, 0xE4, 0xF0, 0x80,
0x3A, 0x90, 0x81, 0xE4, 0x74, 0x01, 0xF0, 0x12, 0x29, 0x2D, 0x90, 0x23, 0xE0, 0x80, 0x1F, 0x90,
0x80, 0xA6, 0xE0, 0x60, 0x13, 0x90, 0x26, 0x15, 0xE0, 0x30, 0xE4, 0x0C, 0x12, 0x0D, 0xC6, 0x30,
0xE4, 0x02, 0x80, 0x0A, 0xE4, 0xF0, 0x80, 0x13, 0x12, 0x0D, 0xCC, 0x30, 0xE4, 0x0B, 0x74, 0x06,
0xF0, 0x90, 0x81, 0xD9, 0xE0, 0x04, 0xF0, 0x80, 0x02, 0xE4, 0xF0, 0x90, 0x81, 0xD9, 0xE0, 0xC3,
0x94, 0x06, 0x40, 0x05, 0x90, 0x23, 0xE0, 0xE4, 0xF0, 0x90, 0x23, 0xF0, 0xE4, 0xF0, 0x22, 0x12,
0x35, 0x59, 0x12, 0x2C, 0xA6, 0x12, 0x37, 0xCD, 0x22, 0x90, 0x80, 0x28, 0xE0, 0x90, 0x80, 0xCD,
0xF0, 0x90, 0x80, 0x2A, 0xE0, 0xFF, 0x78, 0x2A, 0x76, 0x00, 0x08, 0xA6, 0x07, 0xE6, 0xFE, 0x90,
0x80, 0x29, 0xE0, 0xFD, 0xED, 0xFF, 0x18, 0xEE, 0xF6, 0xFE, 0x08, 0xEF, 0xF6, 0xFD, 0xAC, 0x06,
0xE4, 0x12, 0x03, 0x3E, 0x90, 0x80, 0x5E, 0x12, 0x07, 0xDC, 0x90, 0x80, 0x14, 0xE0, 0x90, 0x80,
0x13, 0x12, 0x39, 0xB6, 0x90, 0x80, 0x48, 0x12, 0x07, 0xDC, 0x90, 0x80, 0xCD, 0xE0, 0xFB, 0x60,
0x05, 0x90, 0x80, 0x5E, 0x80, 0x03, 0x90, 0x80, 0x48, 0x12, 0x07, 0x41, 0x90, 0x80, 0x99, 0x12,
0x07, 0xDC, 0x90, 0x80, 0xAA, 0x12, 0x08, 0x01, 0x48, 0x0C, 0xA0, 0x00, 0x90, 0x80, 0x68, 0x74,
0x02, 0xF0, 0xEB, 0x60, 0x08, 0x90, 0x80, 0x99, 0x12, 0x07, 0x41, 0x80, 0x0F, 0xE4, 0xFB, 0xFA,
0xF9, 0x78, 0x40, 0x90, 0x80, 0x99, 0x12, 0x07, 0x41, 0x12, 0x02, 0x2F, 0x90, 0x80, 0x9E, 0x12,
0x07, 0xDC, 0x90, 0x80, 0x10, 0xE0, 0x90, 0x80, 0xA4, 0xF0, 0x90, 0x80, 0x11, 0xE0, 0x90, 0x80,
0xD0, 0xF0, 0x90, 0x80, 0x04, 0xE0, 0x90, 0x80, 0x96, 0xF0, 0x90, 0x80, 0x22, 0xE0, 0x90, 0x80,
0x98, 0xF0, 0x90, 0x80, 0x08, 0xE0, 0x90, 0x80, 0x56, 0xF0, 0x90, 0x80, 0x09, 0xE0, 0x90, 0x80,
0xA6, 0xF0, 0x90, 0x80, 0x05, 0xE0, 0xFF, 0x90, 0x80, 0xA2, 0xF0, 0x90, 0x80, 0x20, 0xE0, 0x90,
0x80, 0xA3, 0xF0, 0x90, 0x80, 0x24, 0xE0, 0x90, 0x80, 0xD3, 0xF0, 0x90, 0x80, 0x26, 0xE0, 0x90,
0x80, 0x5B, 0xF0, 0x90, 0x80, 0x27, 0xE0, 0x90, 0x80, 0x90, 0xF0, 0xEF, 0x54, 0x01, 0x25, 0xE0,
0x25, 0xE0, 0xFF, 0x78, 0x34, 0xE6, 0x54, 0xFB, 0x4F, 0xF6, 0x90, 0x80, 0x96, 0x12, 0x39, 0xBF,
0x90, 0x80, 0xA3, 0xE0, 0x54, 0x01, 0x25, 0xE0, 0xFF, 0x78, 0x37, 0xE6, 0x54, 0xFD, 0x4F, 0xF6,
0x90, 0x80, 0x98, 0x12, 0x39, 0xBF, 0x90, 0x80, 0x16, 0xE0, 0x90, 0x80, 0x15, 0x12, 0x39, 0xB6,
0x90, 0x80, 0x64, 0x12, 0x07, 0xDC, 0x90, 0x20, 0xC3, 0xE4, 0xF0, 0xA3, 0xF0, 0x90, 0x80, 0x56,
0xE0, 0x60, 0x6F, 0xE4, 0x90, 0x80, 0x55, 0xF0, 0x90, 0x80, 0xDD, 0x12, 0x08, 0x01, 0x00, 0x00,
0x00, 0x00, 0x90, 0x80, 0xB1, 0x12, 0x08, 0x01, 0x00, 0x00, 0x00, 0x00, 0xE4, 0x90, 0x80, 0xA5,
0xF0, 0x12, 0x39, 0x96, 0x90, 0x80, 0x1A, 0xE0, 0xFE, 0x90, 0x80, 0x19, 0xE0, 0x90, 0x80, 0x74,
0x12, 0x39, 0xA2, 0x90, 0x80, 0x78, 0x12, 0x08, 0x01, 0x00, 0x00, 0x1A, 0xDB, 0x90, 0x80, 0x1E,
0xE0, 0xFE, 0x90, 0x80, 0x1D, 0xE0, 0xFD, 0xED, 0xFF, 0xE4, 0xFC, 0xFD, 0x90, 0x80, 0x7C, 0x12,
0x07, 0xDC, 0x90, 0x80, 0x80, 0x12, 0x08, 0x01, 0x00, 0x00, 0x0F, 0xA0, 0x90, 0x80, 0x84, 0x12,
0x08, 0x01, 0x00, 0x00, 0x1B, 0x58, 0x90, 0x80, 0x88, 0x12, 0x08, 0x01, 0x00, 0x00, 0x1B, 0x0D,
0x80, 0x03, 0x12, 0x39, 0x96, 0xE4, 0x90, 0x80, 0xB5, 0xF0, 0x90, 0x80, 0x51, 0x12, 0x08, 0x01,
0x00, 0x00, 0x00, 0x00, 0x90, 0x80, 0x91, 0x12, 0x08, 0x01, 0x00, 0x00, 0x00, 0x00, 0x90, 0x80,
0x21, 0xE0, 0xFF, 0xE4, 0xFC, 0xFD, 0xFE, 0x90, 0x80, 0x91, 0x12, 0x07, 0xDC, 0x90, 0x80, 0xC6,
0x12, 0x08, 0x01, 0x00, 0x00, 0x00, 0x00, 0xE4, 0x90, 0x80, 0xB6, 0xF0, 0x90, 0x80, 0x8F, 0x74,
0x12, 0xF0, 0xE4, 0x90, 0x80, 0xC3, 0xF0, 0xA3, 0xF0, 0x90, 0x80, 0x8C, 0xF0, 0x90, 0x80, 0xBF,
0x12, 0x08, 0x01, 0x00, 0x00, 0x00, 0x00, 0xE4, 0x90, 0x80, 0x57, 0xF0, 0x90, 0x80, 0xB0, 0xF0,
0x90, 0x80, 0x70, 0x12, 0x07, 0x41, 0x90, 0x80, 0x62, 0xEE, 0xF0, 0xA3, 0xEF, 0xF0, 0xFD, 0xAC,
0x06, 0xE4, 0x12, 0x03, 0x3E, 0x90, 0x81, 0x8A, 0x12, 0x07, 0xDC, 0xE4, 0x90, 0x80, 0xCE, 0xF0,
0xA3, 0xF0, 0x90, 0x80, 0x21, 0xE0, 0x90, 0x80, 0xCA, 0xF0, 0x90, 0x80, 0x00, 0xE0, 0x90, 0x80,
0x59, 0xF0, 0x90, 0x80, 0x01, 0xE0, 0x90, 0x80, 0x6B, 0xF0, 0xE4, 0x90, 0x80, 0x8D, 0xF0, 0x90,
0x80, 0x95, 0xF0, 0x90, 0x80, 0xCB, 0x04, 0xF0, 0x90, 0x80, 0x03, 0xE0, 0x90, 0x80, 0x8E, 0xF0,
0xE4, 0x90, 0x80, 0x58, 0xF0, 0x90, 0x80, 0xA9, 0x04, 0xF0, 0x90, 0x80, 0xD1, 0x04, 0xF0, 0xA3,
0xE4, 0xF0, 0x90, 0x80, 0x46, 0xF0, 0x90, 0x23, 0xE0, 0xF0, 0x12, 0x35, 0xCB, 0x80, 0xFB, 0x90,
0x81, 0xF5, 0x12, 0x08, 0x01, 0x00, 0x00, 0x00, 0x00, 0x90, 0x81, 0xF9, 0x12, 0x12, 0xDA, 0xA3,
0xF0, 0xA3, 0xF0, 0x78, 0xFF, 0x7C, 0x81, 0x7D, 0x01, 0x7B, 0xFF, 0x7A, 0x2B, 0x79, 0x9D, 0xFE,
0x7F, 0x04, 0x12, 0x04, 0xC8, 0xE4, 0x90, 0x82, 0x03, 0x12, 0x12, 0xDB, 0xA3, 0xF0, 0xFF, 0xFE,
0x7D, 0xFA, 0x7C, 0x43, 0x12, 0x12, 0x20, 0x60, 0x02, 0x50, 0x09, 0xE4, 0xFF, 0xFE, 0x7D, 0x7A,
0x7C, 0x44, 0x80, 0x06, 0x90, 0x81, 0x8A, 0x12, 0x07, 0x41, 0x90, 0x81, 0xF5, 0x12, 0x07, 0xDC,
0x7C, 0x44, 0x90, 0x81, 0xF5, 0x12, 0x13, 0xAE, 0x12, 0x01, 0x26, 0x12, 0x13, 0xA8, 0x12, 0x02,
0x2F, 0xE4, 0xFB, 0xFA, 0xF9, 0x78, 0x40, 0x12, 0x02, 0x2F, 0x12, 0x03, 0x77, 0x90, 0x81, 0xFB,
0xEE, 0xF0, 0xA3, 0xEF, 0xF0, 0xE4, 0x90, 0x82, 0x05, 0xF0, 0x90, 0x82, 0x05, 0xE0, 0xFF, 0xC3,
0x94, 0x02, 0x40, 0x03, 0x02, 0x20, 0x20, 0x90, 0x81, 0xFF, 0x12, 0x12, 0xDA, 0xEF, 0x70, 0x04,
0xFE, 0xFF, 0x80, 0x11, 0x90, 0x81, 0xFB, 0xE0, 0xFE, 0xA3, 0xE0, 0xFF, 0xC3, 0x74, 0xFF, 0x9F,
0xFF, 0x74, 0x01, 0x9E, 0xFE, 0x90, 0x81, 0xF9, 0xEE, 0xF0, 0xA3, 0xEF, 0xF0, 0x90, 0x81, 0xFB,
0xE0, 0xFE, 0xA3, 0xE0, 0xFF, 0x90, 0x81, 0xF9, 0xE0, 0xFC, 0xA3, 0xE0, 0xFD, 0xD3, 0x9F, 0xEC,
0x9E, 0x40, 0x03, 0x02, 0x20, 0x17, 0xE4, 0x90, 0x82, 0x06, 0xF0, 0xEC, 0x90, 0x28, 0x91, 0xF0,
0xED, 0x90, 0x28, 0x90, 0xF0, 0x90, 0x28, 0x8D, 0xE4, 0xF0, 0x90, 0x28, 0x8C, 0x04, 0xF0, 0xED,
0x20, 0xE0, 0x13, 0x12, 0x13, 0x87, 0x90, 0x81, 0xFF, 0x12, 0x13, 0xD2, 0x90, 0x81, 0xFF, 0xE0,
0x94, 0x01, 0x50, 0x23, 0x80, 0x11, 0x12, 0x13, 0x87, 0x90, 0x82, 0x01, 0x12, 0x13, 0xD2, 0x90,
0x82, 0x01, 0xE0, 0x94, 0x01, 0x50, 0x10, 0x90, 0x81, 0xFD, 0xE4, 0x75, 0xF0, 0x01, 0x12, 0x05,
0x82, 0x90, 0x82, 0x06, 0x74, 0x01, 0xF0, 0x90, 0x82, 0x06, 0xE0, 0x60, 0x03, 0x02, 0x20, 0x0A,
0xD3, 0x90, 0x81, 0xFA, 0xE0, 0x94, 0x00, 0x90, 0x81, 0xF9, 0xE0, 0x94, 0x00, 0x40, 0x6B, 0x90,
0x82, 0x01, 0xE0, 0xFE, 0xA3, 0xE0, 0xFF, 0x90, 0x81, 0xFF, 0xE0, 0xFC, 0xA3, 0xE0, 0xFD, 0x9F,
0xEC, 0x9E, 0x50, 0x0F, 0xC3, 0x90, 0x82, 0x02, 0xE0, 0x9D, 0xFF, 0x90, 0x82, 0x01, 0xE0, 0x9C,
0xFE, 0x80, 0x15, 0x90, 0x82, 0x01, 0xE0, 0xFE, 0xA3, 0xE0, 0xFF, 0xC3, 0x90, 0x82, 0x00, 0xE0,
0x9F, 0xFF, 0x90, 0x81, 0xFF, 0xE0, 0x9E, 0xFE, 0x90, 0x82, 0x03, 0xEE, 0xF0, 0xA3, 0xEF, 0xF0,
0xD3, 0x94, 0xE8, 0xEE, 0x94, 0x03, 0x40, 0x0F, 0xD3, 0x12, 0x13, 0xDC, 0x50, 0x09, 0x90, 0x81,
0xFD, 0xE4, 0x75, 0xF0, 0x02, 0x80, 0x10, 0xD3, 0x90, 0x82, 0x04, 0x12, 0x13, 0xDC, 0x40, 0x0A,
0x90, 0x81, 0xFD, 0xE4, 0x75, 0xF0, 0x04, 0x12, 0x05, 0x82, 0x90, 0x81, 0xF9, 0xE4, 0x75, 0xF0,
0x01, 0x12, 0x05, 0x82, 0x02, 0x1F, 0x1D, 0x90, 0x82, 0x05, 0xE0, 0x04, 0xF0, 0x02, 0x1E, 0xEA,
0x12, 0x13, 0x05, 0x7C, 0x03, 0x7D, 0xE8, 0x12, 0x05, 0x2D, 0xEF, 0x25, 0xE0, 0x90, 0x82, 0x07,
0xF0, 0x12, 0x13, 0x05, 0x90, 0x20, 0xD4, 0xEF, 0xF0, 0x12, 0x13, 0x05, 0xEE, 0x90, 0x20, 0xD5,
0xF0, 0x90, 0x20, 0xCF, 0xE4, 0xF0, 0x90, 0x20, 0xCE, 0xF0, 0x90, 0x82, 0x07, 0xE0, 0xFF, 0x90,
0x20, 0xCF, 0xF0, 0x90, 0x81, 0xFD, 0xE0, 0xFC, 0xA3, 0xE0, 0xFD, 0x90, 0x20, 0xCE, 0xF0, 0xC3,
0xED, 0x9F, 0xEC, 0x94, 0x00, 0x40, 0x4A, 0x90, 0x20, 0xC4, 0xE0, 0x44, 0x02, 0xF0, 0x12, 0x3B,
0xF5, 0xC0, 0x04, 0xC0, 0x05, 0xC0, 0x06, 0xC0, 0x07, 0x90, 0x80, 0xD4, 0x12, 0x07, 0x41, 0x90,
0x82, 0x2A, 0x12, 0x07, 0xDC, 0xD0, 0x07, 0xD0, 0x06, 0xD0, 0x05, 0xD0, 0x04, 0x12, 0x38, 0xBE,
0x90, 0x80, 0xBB, 0x12, 0x07, 0xDC, 0x90, 0x80, 0xBB, 0x12, 0x07, 0x41, 0x90, 0x20, 0xDA, 0xEF,
0xF0, 0x90, 0x80, 0xBB, 0x12, 0x07, 0x41, 0x78, 0x08, 0x12, 0x06, 0xFB, 0x90, 0x20, 0xDB, 0xEF,
0xF0, 0x22, 0x90, 0x28, 0x96, 0xE0, 0x44, 0x01, 0x12, 0x22, 0x9D, 0xF0, 0x90, 0x28, 0x93, 0xE0,
0x20, 0xE4, 0x05, 0x12, 0x22, 0xB7, 0x80, 0xF4, 0x90, 0x28, 0x93, 0xE0, 0x30, 0xE4, 0x32, 0x90,
0x27, 0x01, 0xE0, 0x44, 0x10, 0x12, 0x12, 0x9C, 0x12, 0x13, 0x0E, 0xC0, 0x04, 0xC0, 0x05, 0xC0,
0x06, 0xC0, 0x07, 0x78, 0x44, 0x90, 0x81, 0x8A, 0x12, 0x12, 0x5B, 0xD0, 0x03, 0xD0, 0x02, 0xD0,
0x01, 0xD0, 0x00, 0x12, 0x12, 0x44, 0x12, 0x12, 0xE3, 0x12, 0x12, 0x19, 0x40, 0x03, 0x12, 0x1E,
0x6F, 0x90, 0x28, 0x96, 0xE0, 0x54, 0xCF, 0xF0, 0x12, 0x13, 0x5A, 0x12, 0x12, 0x18, 0x40, 0x03,
0x02, 0x21, 0xA4, 0x90, 0x28, 0x8F, 0x74, 0x5A, 0x12, 0x12, 0x18, 0x50, 0x17, 0x7D, 0xFA, 0x7C,
0x44, 0x12, 0x12, 0x1D, 0x60, 0x0E, 0x40, 0x0C, 0x90, 0x80, 0x62, 0x74, 0x08, 0xF0, 0xA3, 0x74,
0xCA, 0xF0, 0x80, 0x0A, 0x90, 0x80, 0x62, 0x74, 0x04, 0xF0, 0xA3, 0x74, 0xE2, 0xF0, 0x12, 0x13,
0x0E, 0x12, 0x12, 0x50, 0x90, 0x81, 0x8A, 0x12, 0x07, 0x5A, 0x12, 0x11, 0xBB, 0x12, 0x12, 0xB5,
0x90, 0x27, 0x01, 0xE0, 0x54, 0xEF, 0x12, 0x22, 0x9D, 0xF0, 0x90, 0x28, 0x93, 0xE0, 0x20, 0xE4,
0x05, 0x12, 0x22, 0xB7, 0x80, 0xF4, 0x90, 0x28, 0x93, 0xE0, 0x30, 0xE4, 0x30, 0x90, 0x21, 0x01,
0x74, 0xF8, 0x12, 0x12, 0x9C, 0xE4, 0xFB, 0xFA, 0xF9, 0x78, 0x44, 0x90, 0x81, 0x8A, 0x12, 0x12,
0x5F, 0xC0, 0x04, 0xC0, 0x05, 0xC0, 0x06, 0xC0, 0x07, 0x12, 0x13, 0x0E, 0xD0, 0x03, 0xD0, 0x02,
0xD0, 0x01, 0xD0, 0x00, 0x12, 0x12, 0x44, 0x12, 0x12, 0xE3, 0x12, 0x1E, 0x6F, 0x90, 0x28, 0x96,
0x12, 0x13, 0x5A, 0xF0, 0x12, 0x11, 0xCE, 0x12, 0x12, 0xB5, 0x90, 0x81, 0x8A, 0x12, 0x13, 0x08,
0x90, 0x80, 0x5C, 0xEE, 0xF0, 0xA3, 0xEF, 0xF0, 0xE4, 0xFF, 0xFE, 0x7D, 0xFA, 0x7C, 0x44, 0x12,
0x12, 0x20, 0x50, 0x3A, 0x90, 0x80, 0x5C, 0x74, 0xFF, 0x75, 0xF0, 0xC4, 0x12, 0x05, 0x82, 0x90,
0x80, 0x5C, 0xE0, 0xFE, 0xA3, 0xE0, 0xFF, 0x24, 0x60, 0xFD, 0xEE, 0x34, 0xFF, 0xFC, 0xD3, 0xED,
0x94, 0xE8, 0xEC, 0x94, 0x03, 0x40, 0x0A, 0xEF, 0x24, 0x9C, 0xFF, 0xEE, 0x34, 0xFF, 0x02, 0x22,
0x86, 0x90, 0x80, 0x69, 0x74, 0x03, 0xF0, 0xA3, 0x74, 0xE8, 0xF0, 0x02, 0x22, 0x8D, 0x12, 0x13,
0x94, 0x12, 0x12, 0x20, 0x50, 0x1D, 0xE4, 0xFF, 0xFE, 0x7D, 0xFA, 0x7C, 0x44, 0x12, 0x12, 0x20,
0x40, 0x11, 0x75, 0xF0, 0xB0, 0x12, 0x13, 0x1A, 0x24, 0x24, 0xFE, 0x90, 0x80, 0x5C, 0xE0, 0x34,
0xFF, 0x80, 0x43, 0x12, 0x12, 0x19, 0x50, 0x19, 0x12, 0x13, 0x94, 0x12, 0x12, 0x20, 0x40, 0x11,
0x75, 0xF0, 0x88, 0x12, 0x13, 0x1A, 0x24, 0xFC, 0xFE, 0x90, 0x80, 0x5C, 0xE0, 0x34, 0xFE, 0x80,
0x25, 0x7D, 0xD4, 0x12, 0x13, 0x96, 0x12, 0x12, 0x20, 0x60, 0x02, 0x50, 0x22, 0x12, 0x12, 0x19,
0x40, 0x1D, 0x90, 0x80, 0x5C, 0x74, 0xFF, 0x75, 0xF0, 0x60, 0x12, 0x13, 0x1F, 0x24, 0x7C, 0xFE,
0x90, 0x80, 0x5C, 0xE0, 0x34, 0xFC, 0x90, 0x80, 0x69, 0xF0, 0xA3, 0xCE, 0xF0, 0x80, 0x1E, 0x90,
0x80, 0x5C, 0x74, 0x1C, 0xF0, 0xA3, 0x74, 0x20, 0xF0, 0x90, 0x81, 0x8A, 0x12, 0x13, 0x08, 0xEF,
0x24, 0x5C, 0xFF, 0xEE, 0x34, 0xFE, 0x90, 0x80, 0x69, 0xF0, 0xA3, 0xEF, 0xF0, 0x90, 0x80, 0x5C,
0xE0, 0xFF, 0xA3, 0xE0, 0x90, 0x80, 0x62, 0xCF, 0xF0, 0xA3, 0xEF, 0xF0, 0x22, 0xF0, 0x7F, 0x01,
0x7E, 0x00, 0x7D, 0x00, 0x7C, 0x00, 0x12, 0x3A, 0xB5, 0x90, 0x28, 0x96, 0xE0, 0x54, 0xFE, 0xF0,
0x90, 0x28, 0x8C, 0xE0, 0x44, 0x01, 0x22, 0x7F, 0x01, 0x7E, 0x00, 0x7D, 0x00, 0x7C, 0x00, 0x12,
0x3A, 0xB5, 0x22, 0xE4, 0x90, 0x81, 0xF6, 0xF0, 0x90, 0x20, 0xEF, 0xE0, 0x20, 0xE3, 0xF9, 0x90,
0x2D, 0xC4, 0xE0, 0x44, 0x08, 0x12, 0x0F, 0x0A, 0x74, 0x0F, 0x12, 0x0F, 0xAA, 0x44, 0x01, 0x12,
0x10, 0x1F, 0x74, 0x0E, 0xF0, 0x90, 0x1F, 0x00, 0xE4, 0xF0, 0xA3, 0x74, 0x10, 0xF0, 0x90, 0x1F,
0x20, 0xE0, 0x44, 0x01, 0xF0, 0xA3, 0x74, 0x01, 0xF0, 0x90, 0x23, 0x03, 0x74, 0x30, 0xF0, 0x90,
0x1F, 0x02, 0xE0, 0x44, 0x03, 0xF0, 0x90, 0x23, 0x2C, 0xE0, 0x20, 0xE1, 0x20, 0xE0, 0x20, 0xE2,
0x1C, 0x90, 0x2D, 0x6D, 0xE0, 0x20, 0xE0, 0x15, 0x7F, 0x01, 0x12, 0x0D, 0x94, 0x12, 0x39, 0xC9,
0x90, 0x81, 0xF6, 0xE0, 0xFF, 0x04, 0xF0, 0xEF, 0xD3, 0x94, 0x64, 0x40, 0xD9, 0x90, 0x2D, 0x6D,
0xE0, 0x30, 0xE0, 0x0A, 0x90, 0x23, 0xE0, 0xE4, 0xF0, 0x90, 0x2C, 0x00, 0x04, 0xF0, 0x90, 0x23,
0x2C, 0xE0, 0x30, 0xE1, 0x4B, 0x90, 0x23, 0x01, 0x74, 0x1F, 0xF0, 0x90, 0x1F, 0x01, 0xE0, 0x44,
0x10, 0xF0, 0x90, 0x1F, 0x21, 0xE0, 0x44, 0x01, 0xF0, 0x90, 0x1F, 0x20, 0xE0, 0x44, 0x01, 0xF0,
0x90, 0x23, 0xE0, 0x74, 0x0C, 0xF0, 0x12, 0x3B, 0xF5, 0xC0, 0x04, 0xC0, 0x05, 0xC0, 0x06, 0xC0,
0x07, 0x12, 0x0F, 0xFA, 0xD0, 0x07, 0xD0, 0x06, 0xD0, 0x05, 0xD0, 0x04, 0x12, 0x38, 0xBE, 0x12,
0x10, 0x06, 0x90, 0x20, 0xDE, 0x12, 0x0E, 0xEF, 0x90, 0x20, 0xDF, 0xEF, 0xF0, 0x02, 0x24, 0x24,
0x90, 0x80, 0xA3, 0xE0, 0x90, 0x81, 0xF4, 0xF0, 0x90, 0x80, 0x98, 0xE0, 0x90, 0x81, 0xF5, 0xF0,
0x12, 0x39, 0x47, 0x90, 0x80, 0x57, 0xE0, 0x70, 0x38, 0x04, 0xF0, 0x90, 0x2D, 0xE0, 0xE0, 0x54,
0xDF, 0xF0, 0xC0, 0x83, 0xC0, 0x82, 0xE0, 0xFF, 0x90, 0x80, 0x98, 0xE0, 0xC4, 0x33, 0x54, 0xE0,
0xFE, 0xEF, 0x4E, 0xD0, 0x82, 0xD0, 0x83, 0x12, 0x0F, 0x0A, 0xE4, 0x12, 0x0F, 0xAA, 0x54, 0xFE,
0x12, 0x10, 0x1F, 0x74, 0x4F, 0xF0, 0xA3, 0xE4, 0xF0, 0x90, 0x23, 0xE0, 0x74, 0x0B, 0xF0, 0x80,
0x43, 0x90, 0x80, 0xA3, 0xE0, 0xFF, 0x90, 0x81, 0xF4, 0xE0, 0x6F, 0x60, 0x0C, 0x12, 0x0D, 0xCC,
0x30, 0xE4, 0x02, 0x80, 0x28, 0xE4, 0xF0, 0x80, 0x2B, 0xE4, 0x90, 0x80, 0x57, 0xF0, 0x90, 0x80,
0xA6, 0xE0, 0x60, 0x13, 0x90, 0x26, 0x15, 0xE0, 0x30, 0xE4, 0x0C, 0x12, 0x0D, 0xC6, 0x30, 0xE4,
0x02, 0x80, 0x0A, 0xE4, 0xF0, 0x80, 0x0D, 0x12, 0x0D, 0xCC, 0x30, 0xE4, 0x05, 0x74, 0x06, 0xF0,
0x80, 0x02, 0xE4, 0xF0, 0x90, 0x23, 0xE0, 0xE0, 0x64, 0x0C, 0x60, 0x03, 0x02, 0x24, 0xAD, 0x90,
0x80, 0x56, 0xE0, 0x70, 0x78, 0x12, 0x0D, 0x56, 0x90, 0x26, 0x2E, 0x12, 0x0D, 0xD7, 0x12, 0x0F,
0x35, 0x12, 0x0E, 0x55, 0xD3, 0x12, 0x06, 0xEA, 0x40, 0x03, 0x12, 0x0E, 0xAD, 0x12, 0x0E, 0xFC,
0x40, 0x1D, 0xE4, 0x7B, 0x5A, 0xFA, 0xF9, 0xF8, 0xC0, 0x00, 0x78, 0x26, 0x12, 0x07, 0x35, 0xD0,
0x00, 0x12, 0x06, 0x27, 0xEF, 0x24, 0x01, 0xFF, 0xE4, 0x3E, 0x90, 0x81, 0xF7, 0x80, 0x1F, 0x12,
0x0E, 0x36, 0xE4, 0x40, 0x04, 0x7B, 0x8C, 0x80, 0x02, 0x7B, 0xF0, 0xFA, 0xF9, 0xF8, 0xC0, 0x00,
0x78, 0x26, 0x12, 0x07, 0x35, 0xD0, 0x00, 0x12, 0x06, 0x27, 0x90, 0x81, 0xF7, 0xEE, 0xF0, 0xA3,
0xEF, 0xF0, 0xD3, 0x90, 0x81, 0xF8, 0xE0, 0x94, 0x28, 0x90, 0x81, 0xF7, 0xE0, 0x94, 0x00, 0x40,
0x0C, 0x12, 0x0D, 0xCC, 0x30, 0xE4, 0x04, 0x74, 0x06, 0xF0, 0x22, 0xE4, 0xF0, 0x22, 0x90, 0x27,
0x8C, 0x74, 0x02, 0xF0, 0x90, 0x27, 0x83, 0xE0, 0x44, 0x04, 0xF0, 0x7F, 0x05, 0x12, 0x0D, 0x94,
0x12, 0x3A, 0xB5, 0x90, 0x27, 0x89, 0x12, 0x0D, 0xD7, 0x90, 0x80, 0xE1, 0x12, 0x07, 0xDC, 0x78,
0x2B, 0xE6, 0xFE, 0x90, 0x27, 0x88, 0xE0, 0x90, 0x80, 0xE1, 0x12, 0x0E, 0x20, 0x90, 0x27, 0x83,
0xE0, 0x54, 0xFB, 0xF0, 0x90, 0x80, 0xBF, 0x12, 0x0E, 0x63, 0x70, 0x0E, 0x90, 0x80, 0xE1, 0x12,
0x07, 0x41, 0x90, 0x80, 0xBF, 0x12, 0x07, 0xDC, 0x80, 0x4C, 0x90, 0x80, 0xBF, 0x12, 0x07, 0x41,
0x90, 0x80, 0xE1, 0x12, 0x0D, 0xB1, 0x40, 0x1B, 0x90, 0x80, 0xBF, 0x12, 0x07, 0x5A, 0x90, 0x80,
0xE1, 0x12, 0x0F, 0xD8, 0x7F, 0x21, 0xFE, 0xFD, 0xFC, 0x90, 0x80, 0x4D, 0x12, 0x0D, 0xB1, 0x40,
0x25, 0x80, 0x19, 0x90, 0x80, 0xE1, 0x12, 0x07, 0x5A, 0x90, 0x80, 0xBF, 0x12, 0x0F, 0xD8, 0x7F,
0x1E, 0xFE, 0xFD, 0xFC, 0x90, 0x80, 0x4D, 0x12, 0x0D, 0xB1, 0x40, 0x0A, 0x90, 0x80, 0xC3, 0x74,
0x01, 0xF0, 0x90, 0x80, 0xAE, 0xF0, 0x90, 0x80, 0xC3, 0xE0, 0x70, 0x03, 0x02, 0x26, 0x42, 0x90,
0x80, 0x8F, 0xE0, 0x12, 0x08, 0x50, 0x25, 0x90, 0x00, 0x25, 0x90, 0x01, 0x25, 0x90, 0x02, 0x25,
0x93, 0x03, 0x25, 0x9E, 0x04, 0x25, 0xA9, 0x05, 0x25, 0xB4, 0x06, 0x25, 0xBF, 0x07, 0x25, 0xCA,
0x08, 0x25, 0xD5, 0x09, 0x25, 0xE0, 0x0A, 0x25, 0xEB, 0x0B, 0x25, 0xF6, 0x0C, 0x26, 0x01, 0x0D,
0x26, 0x0C, 0x0E, 0x26, 0x17, 0x0F, 0x26, 0x22, 0x10, 0x26, 0x2D, 0x11, 0x00, 0x00, 0x25, 0x90,
0x02, 0x26, 0x38, 0x90, 0x80, 0xB7, 0x12, 0x08, 0x01, 0x00, 0x00, 0x1A, 0xF4, 0x22, 0x90, 0x80,
0xB7, 0x12, 0x08, 0x01, 0x00, 0x00, 0x19, 0x00, 0x22, 0x90, 0x80, 0xB7, 0x12, 0x08, 0x01, 0x00,
0x00, 0x17, 0xD4, 0x22, 0x90, 0x80, 0xB7, 0x12, 0x08, 0x01, 0x00, 0x00, 0x16, 0x44, 0x22, 0x90,
0x80, 0xB7, 0x12, 0x08, 0x01, 0x00, 0x00, 0x14, 0xB4, 0x22, 0x90, 0x80, 0xB7, 0x12, 0x08, 0x01,
0x00, 0x00, 0x13, 0x24, 0x22, 0x90, 0x80, 0xB7, 0x12, 0x08, 0x01, 0x00, 0x00, 0x12, 0x8E, 0x22,
0x90, 0x80, 0xB7, 0x12, 0x08, 0x01, 0x00, 0x00, 0x11, 0x62, 0x22, 0x90, 0x80, 0xB7, 0x12, 0x08,
0x01, 0x00, 0x00, 0x10, 0x68, 0x22, 0x90, 0x80, 0xB7, 0x12, 0x08, 0x01, 0x00, 0x00, 0x0F, 0x3C,
0x22, 0x90, 0x80, 0xB7, 0x12, 0x08, 0x01, 0x00, 0x00, 0x0E, 0x42, 0x22, 0x90, 0x80, 0xB7, 0x12,
0x08, 0x01, 0x00, 0x00, 0x0D, 0x16, 0x22, 0x90, 0x80, 0xB7, 0x12, 0x08, 0x01, 0x00, 0x00, 0x0B,
0xEA, 0x22, 0x90, 0x80, 0xB7, 0x12, 0x08, 0x01, 0x00, 0x00, 0x0A, 0xBE, 0x22, 0x90, 0x80, 0xB7,
0x12, 0x08, 0x01, 0x00, 0x00, 0x09, 0x92, 0x22, 0x90, 0x80, 0xB7, 0x12, 0x08, 0x01, 0x00, 0x00,
0x1B, 0x6C, 0x22, 0x12, 0x3C, 0x18, 0x12, 0x3C, 0x07, 0x12, 0x3B, 0xBA, 0xE4, 0xFF, 0x12, 0x00,
0x0A, 0xE4, 0x90, 0x80, 0x90, 0xF0, 0x90, 0x80, 0x5B, 0xF0, 0x90, 0x80, 0xD3, 0xF0, 0x90, 0x80,
0xA4, 0xF0, 0x90, 0x80, 0xD0, 0xF0, 0x90, 0x80, 0xCD, 0xF0, 0x90, 0x80, 0x96, 0xF0, 0x90, 0x80,
0x98, 0xF0, 0x90, 0x80, 0xA2, 0xF0, 0xA3, 0xF0, 0x90, 0x80, 0x48, 0x12, 0x08, 0x01, 0x00, 0x00,
0x00, 0x00, 0x90, 0x80, 0x64, 0x12, 0x08, 0x01, 0x00, 0x00, 0x00, 0x00, 0x90, 0x81, 0x8A, 0x12,
0x08, 0x01, 0x00, 0x00, 0x00, 0x00, 0x90, 0x80, 0x6C, 0x12, 0x08, 0x01, 0x00, 0x00, 0x00, 0x00,
0xE4, 0x90, 0x80, 0x62, 0xF0, 0xA3, 0xF0, 0x90, 0x80, 0xCA, 0xF0, 0x90, 0x80, 0x59, 0xF0, 0x90,
0x80, 0x6B, 0xF0, 0x90, 0x80, 0x8D, 0xF0, 0xA3, 0xF0, 0x90, 0x80, 0xD8, 0xF0, 0x78, 0x31, 0xF6,
0x78, 0x2C, 0xF6, 0x78, 0x2A, 0xF6, 0x08, 0xF6, 0x78, 0x26, 0x12, 0x07, 0xE8, 0x00, 0x00, 0x00,
0x00, 0x78, 0x2D, 0x12, 0x07, 0xE8, 0x00, 0x00, 0x00, 0x00, 0xE4, 0x78, 0x24, 0xF6, 0x08, 0xF6,
0x78, 0x20, 0x12, 0x07, 0xE8, 0x00, 0x00, 0x00, 0x00, 0x90, 0x81, 0xD5, 0x12, 0x08, 0x01, 0x00,
0x00, 0x00, 0x00, 0xE4, 0x90, 0x81, 0xF3, 0xF0, 0x90, 0x81, 0xEF, 0x12, 0x08, 0x01, 0x00, 0x00,
0x00, 0x00, 0x90, 0x81, 0xD1, 0x12, 0x08, 0x01, 0x00, 0x00, 0x00, 0x00, 0x90, 0x81, 0xE9, 0x12,
0x08, 0x01, 0x00, 0x00, 0x00, 0x00, 0x90, 0x81, 0xA0, 0x12, 0x08, 0x01, 0x00, 0x00, 0x00, 0x00,
0x90, 0x81, 0xB6, 0x12, 0x08, 0x01, 0x00, 0x00, 0x00, 0x00, 0x90, 0x81, 0xE0, 0x12, 0x08, 0x01,
0x00, 0x00, 0x00, 0x00, 0xE4, 0x90, 0x81, 0xED, 0xF0, 0x90, 0x81, 0xBA, 0x12, 0x08, 0x01, 0x00,
0x00, 0x00, 0x00, 0x90, 0x81, 0x8E, 0x12, 0x08, 0x01, 0x00, 0x00, 0x00, 0x00, 0x90, 0x81, 0x98,
0x12, 0x08, 0x01, 0x00, 0x00, 0x00, 0x00, 0x90, 0x81, 0xE5, 0x12, 0x08, 0x01, 0x00, 0x00, 0x00,
0x00, 0x90, 0x81, 0x86, 0x12, 0x08, 0x01, 0x00, 0x00, 0x00, 0x00, 0xE4, 0x90, 0x80, 0x56, 0xF0,
0x90, 0x80, 0xD9, 0x12, 0x08, 0x01, 0x00, 0x00, 0x00, 0x00, 0x90, 0x20, 0xC3, 0xE0, 0x54, 0xFE,
0xF0, 0x90, 0x20, 0xC5, 0x12, 0x39, 0x89, 0x90, 0x20, 0xD0, 0x12, 0x39, 0x8A, 0x12, 0x39, 0x8D,
0x90, 0x80, 0xA6, 0xF0, 0x90, 0x20, 0xC3, 0xE0, 0x54, 0xFD, 0xF0, 0xE4, 0x90, 0x80, 0xC4, 0xF0,
0x90, 0x80, 0xAE, 0xF0, 0x90, 0x80, 0xB7, 0x12, 0x08, 0x01, 0x00, 0x00, 0x00, 0x00, 0xE4, 0x90,
0x80, 0x5C, 0xF0, 0xA3, 0xF0, 0x90, 0x80, 0x69, 0xF0, 0xA3, 0xF0, 0x90, 0x80, 0xE1, 0x12, 0x08,
0x01, 0x00, 0x00, 0x00, 0x00, 0x90, 0x80, 0x4D, 0x12, 0x08, 0x01, 0x00, 0x00, 0x00, 0x00, 0x90,
0x20, 0xC4, 0xE0, 0x54, 0xEF, 0xF0, 0x22, 0x90, 0x20, 0xEE, 0xE0, 0x20, 0xE0, 0xF9, 0x90, 0x20,
0x02, 0xE0, 0x44, 0x20, 0xF0, 0xE0, 0x54, 0xFD, 0x12, 0x0D, 0x91, 0x12, 0x3A, 0xB5, 0x90, 0x20,
0x02, 0xE0, 0x54, 0xDF, 0xF0, 0xE0, 0x44, 0x02, 0x12, 0x0D, 0x91, 0x12, 0x3A, 0xB5, 0x90, 0x28,
0x22, 0xE0, 0x54, 0xFC, 0xF0, 0xE0, 0x44, 0x02, 0xF0, 0x90, 0x23, 0x56, 0xE4, 0xF0, 0xA3, 0xF0,
0x90, 0x23, 0x56, 0xE0, 0x54, 0xFE, 0xF0, 0xC0, 0x83, 0xC0, 0x82, 0xE0, 0xFF, 0x90, 0x80, 0xD0,
0xE0, 0xFE, 0xEF, 0x4E, 0xD0, 0x82, 0xD0, 0x83, 0xF0, 0x90, 0x23, 0x56, 0xE0, 0x30, 0xE0, 0x0A,
0x90, 0x80, 0x48, 0x12, 0x08, 0x01, 0x00, 0x00, 0x00, 0x00, 0x90, 0x23, 0x57, 0xC0, 0x83, 0xC0,
0x82, 0xE0, 0xFF, 0x90, 0x81, 0x93, 0xE0, 0xC4, 0x33, 0x33, 0x33, 0x54, 0x80, 0xFE, 0xEF, 0x4E,
0xD0, 0x82, 0xD0, 0x83, 0xF0, 0x78, 0x37, 0xE6, 0x54, 0x7F, 0xF6, 0x90, 0x23, 0x57, 0xE0, 0x54,
0x80, 0xF0, 0xE0, 0x46, 0xF0, 0xE6, 0x54, 0x01, 0x90, 0x80, 0x98, 0xF0, 0xE6, 0xFF, 0xC3, 0x13,
0x54, 0x01, 0x90, 0x80, 0xA3, 0xF0, 0x90, 0x80, 0x56, 0xE0, 0x60, 0x22, 0xE4, 0x90, 0x80, 0x55,
0xF0, 0x90, 0x80, 0xDD, 0x12, 0x08, 0x01, 0x00, 0x00, 0x00, 0x00, 0x90, 0x80, 0xB1, 0x12, 0x08,
0x01, 0x00, 0x00, 0x00, 0x00, 0xE4, 0x90, 0x80, 0xA5, 0xF0, 0x90, 0x80, 0xAF, 0xF0, 0x90, 0x80,
0xA6, 0xE0, 0x60, 0x22, 0xE4, 0x90, 0x80, 0xB5, 0xF0, 0x90, 0x80, 0x51, 0x12, 0x08, 0x01, 0x00,
0x00, 0x00, 0x00, 0x90, 0x80, 0xC6, 0x12, 0x08, 0x01, 0x00, 0x00, 0x00, 0x00, 0xE4, 0x90, 0x81,
0xEE, 0xF0, 0x90, 0x81, 0xC6, 0xF0, 0xE4, 0x90, 0x80, 0x57, 0xF0, 0x90, 0x81, 0xB5, 0xF0, 0x90,
0x80, 0xB0, 0xF0, 0x90, 0x81, 0xD9, 0xF0, 0x90, 0x81, 0xE4, 0xF0, 0x90, 0x81, 0xD9, 0xF0, 0x12,
0x3B, 0x48, 0x12, 0x16, 0xC8, 0x12, 0x33, 0x2C, 0x12, 0x36, 0x3C, 0x12, 0x2C, 0xA6, 0x12, 0x37,
0xCD, 0x74, 0xFC, 0x12, 0x0F, 0x9B, 0xF0, 0x90, 0x80, 0x56, 0xE0, 0x12, 0x0E, 0x7A, 0x12, 0x0D,
0x9B, 0x90, 0x27, 0x1D, 0xE0, 0x20, 0xE0, 0x19, 0x90, 0x23, 0xF9, 0xE0, 0x20, 0xE0, 0x12, 0x90,
0x80, 0x46, 0xE0, 0x64, 0x01, 0x60, 0x0A, 0x7F, 0x05, 0x12, 0x0D, 0x94, 0x12, 0x3A, 0xB5, 0x80,
0xE0, 0x90, 0x23, 0xE0, 0x74, 0x01, 0xF0, 0x90, 0x23, 0xF0, 0xE4, 0xF0, 0x22, 0x12, 0x0E, 0xD9,
0x12, 0x0D, 0x94, 0x12, 0x3A, 0xB5, 0x90, 0x2D, 0x73, 0x12, 0x0D, 0xD7, 0x12, 0x0D, 0x70, 0x90,
0x2D, 0x72, 0x12, 0x0D, 0xD7, 0x12, 0x06, 0xB9, 0xC0, 0x04, 0xC0, 0x05, 0xC0, 0x06, 0xC0, 0x07,
0x12, 0x0D, 0xD4, 0x78, 0x10, 0x12, 0x07, 0x22, 0xD0, 0x03, 0xD0, 0x02, 0xD0, 0x01, 0xD0, 0x00,
0x12, 0x06, 0xB9, 0xC0, 0x04, 0xC0, 0x05, 0xC0, 0x06, 0xC0, 0x07, 0xA3, 0x12, 0x0D, 0xD7, 0x78,
0x18, 0x12, 0x07, 0x22, 0xD0, 0x03, 0xD0, 0x02, 0xD0, 0x01, 0xD0, 0x00, 0x12, 0x06, 0xB9, 0x12,
0x10, 0x54, 0xE4, 0xFF, 0xFE, 0xFD, 0x7C, 0x08, 0x90, 0x81, 0xA6, 0x12, 0x07, 0x5A, 0xC3, 0x12,
0x06, 0xD4, 0x40, 0x13, 0x12, 0x0E, 0x4F, 0xE4, 0x2F, 0xFF, 0xE4, 0x3E, 0xFE, 0xE4, 0x3D, 0xFD,
0xEC, 0x34, 0xF0, 0xFC, 0x12, 0x10, 0x54, 0x12, 0x0E, 0x4F, 0xE4, 0x7B, 0x08, 0xFA, 0x12, 0x0E,
0x44, 0xE4, 0xFB, 0x7A, 0x40, 0x12, 0x0E, 0x44, 0xEC, 0x12, 0x03, 0x39, 0x90, 0x81, 0x8A, 0x12,
0x0E, 0xA4, 0x12, 0x0E, 0x49, 0xE4, 0xFB, 0x7A, 0x20, 0xF9, 0xF8, 0x12, 0x39, 0x03, 0x12, 0x10,
0x54, 0x90, 0x2C, 0x3D, 0xE0, 0x54, 0xFE, 0xF0, 0x90, 0x81, 0xA6, 0x12, 0x10, 0x2B, 0xD3, 0x12,
0x06, 0xD4, 0x90, 0x80, 0x64, 0x40, 0x14, 0x12, 0x0F, 0xF4, 0x78, 0x05, 0x12, 0x07, 0x0E, 0x12,
0x0D, 0x75, 0xE4, 0xFF, 0xFE, 0x7D, 0xA0, 0x7C, 0x0A, 0x80, 0x12, 0x12, 0x0F, 0xF4, 0x78, 0x05,
0x12, 0x07, 0x0E, 0x12, 0x0D, 0x75, 0xE4, 0xFF, 0xFE, 0x7D, 0x60, 0x7C, 0xF5, 0x12, 0x39, 0x03,
0x90, 0x81, 0xCD, 0x12, 0x07, 0xDC, 0x90, 0x81, 0xCD, 0x12, 0x07, 0x41, 0x78, 0x02, 0x12, 0x07,
0x22, 0x90, 0x81, 0xCD, 0x12, 0x07, 0xDC, 0x90, 0x80, 0x98, 0xE0, 0x90, 0x81, 0xBE, 0x60, 0x08,
0x12, 0x10, 0x5A, 0x12, 0x05, 0xD0, 0x80, 0x06, 0x12, 0x10, 0x5A, 0x12, 0x05, 0xDD, 0x90, 0x81,
0xBE, 0x12, 0x07, 0xDC, 0x90, 0x81, 0xBE, 0x12, 0x07, 0x41, 0x90, 0x27, 0x58, 0xEF, 0xF0, 0x90,
0x81, 0xBE, 0x12, 0x0E, 0xF4, 0x90, 0x27, 0x59, 0xEF, 0xF0, 0x90, 0x81, 0xBE, 0x12, 0x0F, 0x27,
0x90, 0x81, 0xBE, 0x12, 0x0F, 0x8F, 0x12, 0x0D, 0x33, 0x12, 0x0D, 0x4B, 0x22, 0x23, 0x03, 0x3A,
0x30, 0x3B, 0x1F, 0x0F, 0x0B, 0x09, 0x0E, 0x0F, 0x11, 0x13, 0x06, 0x0D, 0x13, 0x1A, 0x31, 0x52,
0x73, 0x73, 0x83, 0x09, 0x33, 0x22, 0x02, 0x3A, 0x26, 0x29, 0x1F, 0x0F, 0x0A, 0x08, 0x0D, 0x11,
0x13, 0x14, 0x04, 0x04, 0x05, 0x06, 0x31, 0x52, 0x73, 0x73, 0x83, 0x09, 0x22, 0x33, 0x04, 0x40,
0x40, 0x29, 0x14, 0x0F, 0x0B, 0x04, 0x20, 0x26, 0x2A, 0x2D, 0x06, 0x0D, 0x13, 0x1A, 0x31, 0x52,
0x73, 0x73, 0x73, 0x0B, 0x1A, 0x33, 0x04, 0x40, 0x40, 0x14, 0x0E, 0x06, 0x04, 0x03, 0x12, 0x13,
0x16, 0x18, 0x05, 0x06, 0x08, 0x10, 0x52, 0x52, 0x73, 0x73, 0x62, 0x0B, 0x11, 0x33, 0x04, 0x40,
0x40, 0x10, 0x08, 0x06, 0x04, 0x03, 0x26, 0x2A, 0x2D, 0x2D, 0x06, 0x0D, 0x13, 0x1A, 0x31, 0x52,
0x73, 0x73, 0x62, 0x0B, 0x0D, 0x1F, 0xF9, 0x00, 0x05, 0x00, 0x14, 0x00, 0x22, 0x00, 0x23, 0x00,
0x12, 0x1F, 0xF5, 0x1F, 0xE1, 0x1F, 0xE8, 0x00, 0x07, 0x00, 0x26, 0x00, 0x28, 0x00, 0x06, 0x1F,
0xD7, 0x1F, 0xC5, 0x1F, 0xE6, 0x00, 0x26, 0x00, 0x4E, 0x00, 0x37, 0x1F, 0xE8, 0x1F, 0xA1, 0x1F,
0xA5, 0x1F, 0xFE, 0x00, 0x69, 0x00, 0x87, 0x00, 0x2D, 0x1F, 0x99, 0x1F, 0x4A, 0x1F, 0x95, 0x00,
0x52, 0x00, 0xE8, 0x00, 0xC3, 0x1F, 0xDF, 0x1E, 0xE9, 0x1E, 0xC4, 0x1F, 0xC3, 0x01, 0x40, 0x01,
0xF3, 0x00, 0xF1, 0x1E, 0x9F, 0x1C, 0xBD, 0x1D, 0x60, 0x01, 0x76, 0x07, 0xD4, 0x0D, 0xA6, 0x0F,
0xFF, 0x00, 0x00, 0x00, 0x00, 0x1F, 0xFF, 0x1F, 0xFE, 0x1F, 0xFD, 0x1F, 0xFC, 0x1F, 0xFD, 0x00,
0x01, 0x00, 0x08, 0x00, 0x12, 0x00, 0x1C, 0x00, 0x1F, 0x00, 0x1A, 0x00, 0x0A, 0x1F, 0xF5, 0x1F,
0xE4, 0x1F, 0xE1, 0x1F, 0xF1, 0x00, 0x0D, 0x00, 0x24, 0x00, 0x29, 0x00, 0x12, 0x1F, 0xE9, 0x1F,
0xC6, 0x1F, 0xC1, 0x1F, 0xE6, 0x00, 0x26, 0x00, 0x5C, 0x00, 0x60, 0x00, 0x24, 0x1F, 0xC1, 0x1F,
0x70, 0x1F, 0x6F, 0x1F, 0xD0, 0x00, 0x6B, 0x00, 0xE6, 0x00, 0xE1, 0x00, 0x3B, 0x1F, 0x34, 0x1E,
0x60, 0x1E, 0x6C, 0x1F, 0xBD, 0x02, 0x31, 0x05, 0x13, 0x07, 0x65, 0x08, 0x48, 0x00, 0x00, 0x00,
0x00, 0x90, 0x81, 0xF5, 0x12, 0x0E, 0x07, 0x90, 0x80, 0x64, 0x12, 0x0F, 0xF4, 0xEE, 0xC3, 0x13,
0xFF, 0x90, 0x81, 0xFA, 0xE4, 0xF0, 0xA3, 0xEF, 0xF0, 0x90, 0x81, 0xC2, 0x12, 0x10, 0x2B, 0x12,
0x02, 0xCC, 0x70, 0x02, 0xFF, 0x22, 0x12, 0x34, 0xD1, 0x90, 0x81, 0xF6, 0xEE, 0xF0, 0xA3, 0xEF,
0xF0, 0x90, 0x81, 0xC2, 0x12, 0x0F, 0xF4, 0x90, 0x81, 0xF8, 0xEE, 0xF0, 0xA3, 0xEF, 0xF0, 0x90,
0x81, 0xF6, 0x12, 0x10, 0x3B, 0x94, 0x00, 0xEE, 0x64, 0x80, 0x94, 0x80, 0x40, 0x22, 0xD3, 0x90,
0x81, 0xF9, 0xE0, 0x94, 0x00, 0x90, 0x81, 0xF8, 0xE0, 0x64, 0x80, 0x94, 0x80, 0x40, 0x11, 0x90,
0x81, 0xFA, 0xE0, 0xFC, 0xA3, 0xE0, 0xFD, 0xD3, 0xEF, 0x9D, 0xEE, 0x9C, 0x40, 0x32, 0x80, 0x2A,
0x90, 0x81, 0xF6, 0x12, 0x0F, 0x15, 0xEE, 0x64, 0x80, 0x94, 0x80, 0x50, 0x23, 0xC3, 0xA3, 0xE0,
0x64, 0x80, 0x94, 0x80, 0x50, 0x1A, 0x7C, 0xFF, 0x7D, 0xFF, 0x12, 0x05, 0x1B, 0xC3, 0x90, 0x81,
0xFB, 0xE0, 0x9F, 0x90, 0x81, 0xFA, 0xE0, 0x9E, 0x50, 0x06, 0x90, 0x81, 0xF5, 0x74, 0x01, 0xF0,
0x90, 0x81, 0xF5, 0xE0, 0x64, 0x01, 0x70, 0x58, 0x90, 0x80, 0xCD, 0xE0, 0x90, 0x80, 0x64, 0x60,
0x08, 0x12, 0x07, 0x5A, 0x90, 0x80, 0x5E, 0x80, 0x06, 0x12, 0x07, 0x5A, 0x90, 0x80, 0x48, 0x12,
0x0D, 0xF2, 0x90, 0x81, 0xFC, 0x12, 0x07, 0xDC, 0x90, 0x81, 0xFC, 0x12, 0x0E, 0x9E, 0x78, 0x26,
0x12, 0x07, 0xD0, 0x78, 0x26, 0x12, 0x07, 0x35, 0x90, 0x27, 0x58, 0xEF, 0xF0, 0x78, 0x26, 0x12,
0x07, 0x35, 0x78, 0x08, 0x12, 0x06, 0xFB, 0x90, 0x27, 0x59, 0xEF, 0xF0, 0x78, 0x26, 0x12, 0x07,
0x35, 0x12, 0x0F, 0x2A, 0x78, 0x26, 0x12, 0x07, 0x35, 0x12, 0x0F, 0x92, 0xEF, 0x12, 0x0D, 0x4A,
0x90, 0x81, 0xF5, 0xE0, 0xFF, 0x22, 0x90, 0x23, 0x01, 0xE4, 0xF0, 0x90, 0x1F, 0x01, 0xE0, 0x54,
0xEF, 0xF0, 0x90, 0x1F, 0x21, 0xE0, 0x54, 0xFE, 0xF0, 0x90, 0x23, 0x02, 0x74, 0x4F, 0xF0, 0xA3,
0xE4, 0xF0, 0xA3, 0x12, 0x13, 0x7A, 0x60, 0x21, 0x12, 0x13, 0x3C, 0x90, 0x1F, 0x22, 0xE0, 0x44,
0x12, 0xF0, 0xC0, 0x83, 0xC0, 0x82, 0x12, 0x12, 0x8E, 0xD0, 0x82, 0xD0, 0x83, 0x12, 0x12, 0xFC,
0x90, 0x1F, 0x22, 0xE0, 0x54, 0xD7, 0xF0, 0x80, 0x15, 0x90, 0x1F, 0x22, 0xE0, 0x54, 0xD5, 0xF0,
0xC0, 0x83, 0xC0, 0x82, 0x12, 0x12, 0x8E, 0xD0, 0x82, 0xD0, 0x83, 0x12, 0x12, 0xFC, 0x90, 0x1F,
0x22, 0xE0, 0x44, 0x10, 0xF0, 0x12, 0x13, 0x27, 0x12, 0x12, 0xFC, 0xE0, 0x54, 0xFE, 0xF0, 0x90,
0x23, 0x20, 0x74, 0x32, 0xF0, 0x90, 0x23, 0x22, 0x12, 0x13, 0xCB, 0xA3, 0x12, 0x13, 0xCB, 0xA3,
0xF0, 0xA3, 0xF0, 0xA3, 0x74, 0x20, 0xF0, 0xA3, 0xE4, 0xF0, 0x90, 0x80, 0xCA, 0xE0, 0x90, 0x23,
0x2A, 0x12, 0x13, 0xC0, 0xFF, 0xFE, 0x7D, 0xE1, 0x7C, 0x46, 0x90, 0x80, 0x64, 0x12, 0x12, 0x23,
0x60, 0x02, 0x50, 0x0C, 0x90, 0x1F, 0x48, 0xE4, 0xF0, 0xA3, 0xF0, 0xA3, 0x74, 0xE2, 0x80, 0x2A,
0xE4, 0xFF, 0xFE, 0x7D, 0x0A, 0x7C, 0x47, 0x90, 0x80, 0x64, 0x12, 0x12, 0x23, 0x90, 0x1F, 0x48,
0x60, 0x02, 0x50, 0x0C, 0x74, 0x80, 0xF0, 0xA3, 0x74, 0x03, 0xF0, 0xA3, 0x74, 0xD7, 0x80, 0x0A,
0x74, 0x40, 0xF0, 0xA3, 0x74, 0xF6, 0xF0, 0xA3, 0x74, 0xD3, 0xF0, 0xA3, 0x74, 0x04, 0xF0, 0x90,
0x1F, 0x08, 0x12, 0x13, 0xCB, 0x90, 0x1F, 0x04, 0xF0, 0x22, 0x90, 0x1E, 0x20, 0xE4, 0xF0, 0x90,
0x80, 0xAA, 0x12, 0x07, 0x5A, 0x90, 0x80, 0x99, 0x12, 0x12, 0x5F, 0x90, 0x81, 0x2F, 0x12, 0x07,
0xDC, 0x90, 0x81, 0x2F, 0x12, 0x12, 0x29, 0x90, 0x1E, 0x22, 0xEF, 0xF0, 0x12, 0x12, 0x3E, 0x78,
0x08, 0x12, 0x06, 0xFB, 0x90, 0x1E, 0x23, 0xEF, 0xF0, 0x12, 0x12, 0x3E, 0x78, 0x10, 0x12, 0x06,
0xFB, 0x90, 0x1E, 0x24, 0xEF, 0xF0, 0x12, 0x12, 0x3E, 0x78, 0x18, 0x12, 0x06, 0xFB, 0x90, 0x1E,
0x25, 0xEF, 0xF0, 0x90, 0x1E, 0x36, 0x12, 0x13, 0x65, 0x12, 0x13, 0x65, 0x74, 0x40, 0xF0, 0xA3,
0xE4, 0xF0, 0x90, 0x1E, 0x40, 0x74, 0x70, 0xF0, 0xA3, 0x74, 0x40, 0xF0, 0x90, 0x1E, 0x4E, 0xE4,
0xF0, 0xA3, 0x04, 0xF0, 0x90, 0x1E, 0x42, 0x12, 0x13, 0x65, 0x74, 0x60, 0xF0, 0x90, 0x1E, 0x46,
0x74, 0x67, 0xF0, 0x90, 0x1E, 0x21, 0x74, 0x03, 0x12, 0x13, 0xA7, 0x90, 0x80, 0x9E, 0x12, 0x12,
0x5F, 0x90, 0x81, 0x33, 0x12, 0x07, 0xDC, 0xE4, 0xFF, 0xFE, 0xFD, 0x7C, 0x4D, 0x90, 0x81, 0x33,
0x12, 0x12, 0x2F, 0x90, 0x1E, 0x26, 0xEF, 0xF0, 0x12, 0x12, 0x3E, 0x78, 0x08, 0x12, 0x06, 0xFB,
0x90, 0x1E, 0x27, 0xEF, 0xF0, 0x12, 0x12, 0x3E, 0x78, 0x10, 0x12, 0x06, 0xFB, 0x90, 0x1E, 0x28,
0xEF, 0xF0, 0x12, 0x12, 0x3E, 0x78, 0x18, 0x12, 0x06, 0xFB, 0x90, 0x1E, 0x29, 0xEF, 0xF0, 0x90,
0x1E, 0x04, 0x74, 0x01, 0xF0, 0xA3, 0xE4, 0xF0, 0x22, 0x90, 0x80, 0x5C, 0x12, 0x10, 0x3B, 0x94,
0x64, 0xEE, 0x94, 0x19, 0x40, 0x02, 0x80, 0x1F, 0xD3, 0xEF, 0x94, 0x70, 0xEE, 0x94, 0x17, 0x40,
0x02, 0x80, 0x14, 0xD3, 0xEF, 0x94, 0x7C, 0xEE, 0x94, 0x15, 0x40, 0x02, 0x80, 0x09, 0xD3, 0xEF,
0x94, 0x88, 0xEE, 0x94, 0x13, 0x40, 0x0A, 0x90, 0x80, 0x62, 0x74, 0xFF, 0x75, 0xF0, 0xF4, 0x80,
0x4E, 0xD3, 0xEF, 0x94, 0x94, 0xEE, 0x94, 0x11, 0x40, 0x0A, 0x90, 0x80, 0x62, 0x74, 0xFF, 0x75,
0xF0, 0xF8, 0x80, 0x3B, 0xD3, 0xEF, 0x94, 0xA0, 0xEE, 0x94, 0x0F, 0x40, 0x0A, 0x90, 0x80, 0x62,
0x74, 0xFF, 0x75, 0xF0, 0xFA, 0x80, 0x28, 0xD3, 0xEF, 0x94, 0xB8, 0xEE, 0x94, 0x0B, 0x40, 0x0A,
0x90, 0x80, 0x62, 0x74, 0xFF, 0x75, 0xF0, 0xFC, 0x80, 0x15, 0xD3, 0xEF, 0x94, 0xF6, 0xEE, 0x94,
0x09, 0x90, 0x80, 0x62, 0x74, 0xFF, 0x40, 0x05, 0x75, 0xF0, 0xFE, 0x80, 0x02, 0xF5, 0xF0, 0x12,
0x05, 0x82, 0x90, 0x80, 0x69, 0x12, 0x0F, 0x15, 0x90, 0x80, 0x63, 0xE0, 0x9F, 0x90, 0x80, 0x62,
0xE0, 0x9E, 0x50, 0x25, 0x90, 0x80, 0x5D, 0xE0, 0x24, 0x01, 0xFE, 0x90, 0x80, 0x5C, 0xE0, 0x34,
0x00, 0x90, 0x80, 0x62, 0xF0, 0xA3, 0xCE, 0xF0, 0x90, 0x20, 0xC3, 0xE0, 0x44, 0x01, 0xF0, 0x90,
0x80, 0xB1, 0x12, 0x08, 0x01, 0x00, 0x00, 0x00, 0x01, 0x12, 0x0D, 0x4B, 0x22, 0x90, 0x20, 0xEF,
0xE0, 0x20, 0xE2, 0xF9, 0x12, 0x0E, 0xD2, 0x70, 0x02, 0x80, 0x27, 0x12, 0x0E, 0xD2, 0xFF, 0xBF,
0x01, 0x02, 0x80, 0x10, 0x12, 0x0E, 0xD2, 0xFF, 0xBF, 0x02, 0x02, 0x80, 0x07, 0x12, 0x0E, 0xD2,
0xFF, 0xBF, 0x03, 0x07, 0x90, 0x2C, 0x30, 0x74, 0x44, 0x80, 0x0C, 0x12, 0x0E, 0xD2, 0xFF, 0xBF,
0x04, 0x0A, 0x90, 0x2C, 0x30, 0x74, 0x54, 0xF0, 0xA3, 0x74, 0x04, 0xF0, 0x12, 0x0F, 0x0B, 0x90,
0x80, 0x56, 0xE0, 0x60, 0x10, 0x90, 0x80, 0xA6, 0xE0, 0x60, 0x0A, 0x90, 0x81, 0xA4, 0xE0, 0x90,
0x23, 0xF2, 0xF0, 0x80, 0x03, 0x12, 0x0E, 0x7A, 0x12, 0x0D, 0x9B, 0x90, 0x2D, 0x6C, 0xE0, 0x20,
0xE4, 0x18, 0x90, 0x23, 0xF9, 0xE0, 0x20, 0xE0, 0x11, 0x90, 0x2D, 0x6D, 0xE0, 0x20, 0xE0, 0x0A,
0x7F, 0x05, 0x12, 0x0D, 0x94, 0x12, 0x3A, 0xB5, 0x80, 0xE1, 0x90, 0x2D, 0x6D, 0xE0, 0x30, 0xE0,
0x05, 0x12, 0x0D, 0xB8, 0xE4, 0xF0, 0x90, 0x2D, 0x6C, 0xE0, 0x30, 0xE4, 0x08, 0x90, 0x23, 0xE0,
0x74, 0x0B, 0xF0, 0x80, 0x1F, 0x90, 0x80, 0xA6, 0xE0, 0x60, 0x0C, 0x90, 0x26, 0x15, 0xE0, 0x30,
0xE4, 0x05, 0x12, 0x0E, 0x29, 0x80, 0x0D, 0x12, 0x0D, 0xCC, 0x30, 0xE4, 0x05, 0x74, 0x06, 0xF0,
0x80, 0x02, 0xE4, 0xF0, 0x90, 0x23, 0xF0, 0xE4, 0xF0, 0x22, 0x90, 0x20, 0xEE, 0xE0, 0x20, 0xE7,
0xF9, 0x90, 0x26, 0x3C, 0x74, 0x0A, 0xF0, 0xA3, 0x74, 0x0E, 0xF0, 0x74, 0xAB, 0x12, 0x0D, 0xF8,
0x12, 0x0E, 0xD2, 0x14, 0x60, 0x0C, 0x14, 0x60, 0x10, 0x14, 0x60, 0x0D, 0x24, 0x03, 0x70, 0x09,
0x80, 0x07, 0x90, 0x2C, 0x30, 0x74, 0x44, 0x80, 0x05, 0x90, 0x2C, 0x30, 0x74, 0x54, 0xF0, 0xA3,
0x74, 0x04, 0xF0, 0x90, 0x2D, 0xE1, 0x74, 0x44, 0x12, 0x0F, 0x0A, 0x90, 0x80, 0xA6, 0xE0, 0x60,
0x10, 0x90, 0x80, 0xB5, 0xE0, 0x60, 0x0A, 0x90, 0x81, 0x92, 0xE0, 0x90, 0x23, 0xF2, 0xF0, 0x80,
0x03, 0x12, 0x0E, 0x7A, 0x12, 0x0D, 0x9B, 0x90, 0x2D, 0x6C, 0xE0, 0x20, 0xE1, 0x18, 0x90, 0x23,
0xF9, 0xE0, 0x20, 0xE0, 0x11, 0x90, 0x2D, 0x6D, 0xE0, 0x20, 0xE0, 0x0A, 0x7F, 0x01, 0x12, 0x0D,
0x94, 0x12, 0x39, 0xC9, 0x80, 0xE1, 0x90, 0x2D, 0x6D, 0xE0, 0x30, 0xE0, 0x05, 0x12, 0x0D, 0xB8,
0xE4, 0xF0, 0x90, 0x2D, 0x6C, 0xE0, 0x30, 0xE1, 0x08, 0x90, 0x23, 0xE0, 0x74, 0x08, 0xF0, 0x80,
0x1F, 0x90, 0x80, 0xA6, 0xE0, 0x60, 0x0C, 0x90, 0x26, 0x15, 0xE0, 0x30, 0xE4, 0x05, 0x12, 0x0E,
0x29, 0x80, 0x0D, 0x12, 0x0D, 0xCC, 0x30, 0xE4, 0x05, 0x74, 0x06, 0xF0, 0x80, 0x02, 0xE4, 0xF0,
0x90, 0x23, 0xF0, 0xE4, 0xF0, 0x22, 0x90, 0x20, 0xEF, 0xE0, 0x20, 0xE1, 0xF9, 0x12, 0x0E, 0xD2,
0x14, 0x60, 0x0C, 0x14, 0x60, 0x10, 0x14, 0x60, 0x0D, 0x24, 0x03, 0x70, 0x09, 0x80, 0x07, 0x90,
0x2C, 0x30, 0x74, 0x44, 0x80, 0x05, 0x90, 0x2C, 0x30, 0x74, 0x54, 0xF0, 0xA3, 0x74, 0x04, 0xF0,
0x90, 0x2D, 0xE1, 0x74, 0x23, 0xF0, 0x90, 0x2D, 0xCE, 0xE0, 0x54, 0xFE, 0x12, 0x0F, 0x0A, 0x90,
0x80, 0xA6, 0xE0, 0x60, 0x10, 0x90, 0x80, 0xB5, 0xE0, 0x60, 0x0A, 0x90, 0x81, 0xA5, 0xE0, 0x90,
0x23, 0xF2, 0xF0, 0x80, 0x03, 0x12, 0x0E, 0x7A, 0x12, 0x0D, 0x9B, 0x90, 0x2D, 0x6C, 0xE0, 0x20,
0xE3, 0x18, 0x90, 0x23, 0xF9, 0xE0, 0x20, 0xE0, 0x11, 0x90, 0x2D, 0x6D, 0xE0, 0x20, 0xE0, 0x0A,
0x7F, 0x01, 0x12, 0x0D, 0x94, 0x12, 0x39, 0xC9, 0x80, 0xE1, 0x90, 0x2D, 0x6D, 0xE0, 0x30, 0xE0,
0x05, 0x12, 0x0D, 0xB8, 0xE4, 0xF0, 0x90, 0x2D, 0x6C, 0xE0, 0x30, 0xE3, 0x08, 0x90, 0x23, 0xE0,
0x74, 0x0A, 0xF0, 0x80, 0x1F, 0x90, 0x80, 0xA6, 0xE0, 0x60, 0x0C, 0x90, 0x26, 0x15, 0xE0, 0x30,
0xE4, 0x05, 0x12, 0x0E, 0x29, 0x80, 0x0D, 0x12, 0x0D, 0xCC, 0x30, 0xE4, 0x05, 0x74, 0x06, 0xF0,
0x80, 0x02, 0xE4, 0xF0, 0x90, 0x23, 0xF0, 0xE4, 0xF0, 0x22, 0x90, 0x20, 0xEF, 0xE0, 0x20, 0xE0,
0xF9, 0x90, 0x26, 0x60, 0x74, 0xB1, 0x12, 0x0D, 0xFF, 0x12, 0x0E, 0xD2, 0x14, 0x60, 0x0C, 0x14,
0x60, 0x09, 0x14, 0x60, 0x06, 0x24, 0x03, 0x70, 0x02, 0x80, 0x00, 0x90, 0x2C, 0x30, 0x74, 0x54,
0xF0, 0xA3, 0x74, 0x04, 0xF0, 0x12, 0x0F, 0x0B, 0x90, 0x80, 0xA6, 0xE0, 0x60, 0x10, 0x90, 0x80,
0xB5, 0xE0, 0x60, 0x0A, 0x90, 0x81, 0xDF, 0xE0, 0x90, 0x23, 0xF2, 0xF0, 0x80, 0x03, 0x12, 0x0E,
0x7A, 0x12, 0x0D, 0x9B, 0x90, 0x2D, 0x6C, 0xE0, 0x20, 0xE2, 0x18, 0x90, 0x23, 0xF9, 0xE0, 0x20,
0xE0, 0x11, 0x90, 0x2D, 0x6D, 0xE0, 0x20, 0xE0, 0x0A, 0x7F, 0x01, 0x12, 0x0D, 0x94, 0x12, 0x39,
0xC9, 0x80, 0xE1, 0x90, 0x2D, 0x6D, 0xE0, 0x30, 0xE0, 0x05, 0x12, 0x0D, 0xB8, 0xE4, 0xF0, 0x90,
0x2D, 0x6C, 0xE0, 0x30, 0xE2, 0x08, 0x90, 0x23, 0xE0, 0x74, 0x09, 0xF0, 0x80, 0x1D, 0x90, 0x80,
0xA6, 0xE0, 0x60, 0x0A, 0x12, 0x0E, 0x60, 0x70, 0x05, 0x12, 0x0E, 0x29, 0x80, 0x0D, 0x12, 0x0D,
0xCC, 0x30, 0xE4, 0x05, 0x74, 0x06, 0xF0, 0x80, 0x02, 0xE4, 0xF0, 0x90, 0x23, 0xF0, 0xE4, 0xF0,
0x22, 0x90, 0x20, 0x03, 0xE4, 0xF0, 0x74, 0x1E, 0x12, 0x39, 0xAB, 0x7F, 0x00, 0x12, 0x32, 0x8A,
0x74, 0x06, 0x12, 0x39, 0xAB, 0x7F, 0x01, 0x12, 0x32, 0x8A, 0x90, 0x2E, 0x67, 0x74, 0x12, 0xF0,
0x90, 0x2E, 0x66, 0x74, 0x01, 0xF0, 0x90, 0x2E, 0x61, 0x74, 0x06, 0xF0, 0x90, 0x2E, 0x60, 0xE4,
0xF0, 0x90, 0x2E, 0x03, 0x74, 0x34, 0xF0, 0x90, 0x2E, 0x02, 0x74, 0x40, 0xF0, 0x90, 0x2E, 0x19,
0xE4, 0xF0, 0x90, 0x2E, 0x18, 0x04, 0xF0, 0x90, 0x2E, 0x41, 0xE4, 0xF0, 0x90, 0x2E, 0x40, 0xF0,
0x90, 0x2E, 0x17, 0x74, 0x05, 0xF0, 0x90, 0x2E, 0x16, 0xF0, 0x90, 0x20, 0x03, 0xE4, 0xF0, 0x90,
0x20, 0x02, 0x74, 0x42, 0xF0, 0x90, 0x20, 0x61, 0xE4, 0xF0, 0x90, 0x20, 0x60, 0xF0, 0x90, 0x20,
0x65, 0x74, 0x0C, 0xF0, 0x90, 0x20, 0x64, 0xE4, 0xF0, 0x90, 0x20, 0x67, 0x74, 0x0C, 0xF0, 0x90,
0x20, 0x66, 0xE4, 0xF0, 0x90, 0x2E, 0x6D, 0xF0, 0x90, 0x2E, 0x6C, 0x74, 0x11, 0xF0, 0x90, 0x20,
0xA0, 0xE0, 0x54, 0xFE, 0xF0, 0x7E, 0x00, 0x7F, 0x01, 0x22, 0x7E, 0x00, 0x7D, 0x00, 0x7C, 0x00,
0x12, 0x39, 0xC9, 0x22, 0xC0, 0xE0, 0xC0, 0x83, 0xC0, 0x82, 0xC0, 0xD0, 0x75, 0xD0, 0x18, 0xC2,
0xA8, 0x90, 0x1B, 0x10, 0xE0, 0x30, 0xE2, 0x79, 0x90, 0x1B, 0x08, 0x74, 0x04, 0xF0, 0xE4, 0xF0,
0x90, 0x2F, 0x00, 0xE0, 0x24, 0xFE, 0x60, 0x20, 0x14, 0x60, 0x32, 0x14, 0x60, 0x41, 0x24, 0x5F,
0x60, 0x57, 0x24, 0xA4, 0x70, 0x5B, 0x12, 0x3B, 0x18, 0x18, 0xE6, 0xFE, 0x08, 0xE6, 0xF5, 0x82,
0x8E, 0x83, 0xE0, 0x90, 0x2F, 0x03, 0x80, 0x12, 0x12, 0x3B, 0x18, 0x90, 0x2F, 0x03, 0xE0, 0xFF,
0x18, 0xE6, 0xFC, 0x08, 0xE6, 0xF5, 0x82, 0x8C, 0x83, 0xEF, 0xF0, 0x80, 0x24, 0x12, 0x3B, 0x18,
0x12, 0x3B, 0x30, 0x50, 0x08, 0x12, 0x3B, 0x3D, 0xE0, 0x90, 0x2F, 0x03, 0xF0, 0x80, 0x12, 0x12,
0x3B, 0x18, 0x12, 0x3B, 0x30, 0x50, 0x0A, 0x90, 0x2F, 0x03, 0xE0, 0xFD, 0x12, 0x3B, 0x3D, 0xED,
0xF0, 0x90, 0x2F, 0x00, 0x74, 0xFF, 0xF0, 0x80, 0x08, 0x90, 0x2F, 0x00, 0x74, 0x5A, 0xF0, 0x80,
0xFE, 0xD2, 0xA8, 0xD0, 0xD0, 0xD0, 0x82, 0xD0, 0x83, 0xD0, 0xE0, 0x32, 0x74, 0x01, 0x12, 0x13,
0x52, 0xF0, 0x90, 0x26, 0x82, 0x74, 0x68, 0xF0, 0xA3, 0x74, 0x03, 0xF0, 0xA3, 0x74, 0xDA, 0xF0,
0x90, 0x81, 0xF4, 0x12, 0x08, 0x01, 0x40, 0x86, 0x66, 0x66, 0x12, 0x12, 0xC7, 0x90, 0x26, 0x85,
0xEF, 0xF0, 0x90, 0x26, 0x8A, 0x74, 0x40, 0xF0, 0xA3, 0x74, 0x05, 0xF0, 0x90, 0x26, 0x86, 0x74,
0x30, 0xF0, 0x90, 0x26, 0x3C, 0x74, 0x04, 0xF0, 0xA3, 0x74, 0x0A, 0xF0, 0x90, 0x26, 0x0A, 0x74,
0x03, 0xF0, 0xA3, 0x74, 0x10, 0xF0, 0x90, 0x26, 0x0D, 0x74, 0x40, 0xF0, 0x90, 0x26, 0x0C, 0xE4,
0xF0, 0x90, 0x26, 0x60, 0x74, 0x81, 0xF0, 0xA3, 0x74, 0x6E, 0xF0, 0x90, 0x81, 0xF4, 0x12, 0x08,
0x01, 0x3F, 0x80, 0x00, 0x00, 0x12, 0x12, 0xC7, 0x90, 0x26, 0x62, 0xEF, 0xF0, 0xA3, 0x74, 0x40,
0xF0, 0xA3, 0x74, 0x65, 0xF0, 0xA3, 0x74, 0x30, 0xF0, 0x90, 0x26, 0x3E, 0x74, 0x01, 0xF0, 0x90,
0x26, 0xD0, 0xF0, 0xA3, 0xF0, 0x90, 0x26, 0x02, 0xF0, 0x22, 0x78, 0x7F, 0xE4, 0xF6, 0xD8, 0xFD,
0x75, 0x81, 0x3E, 0x02, 0x34, 0x01, 0x02, 0x38, 0x27, 0xE4, 0x93, 0xA3, 0xF8, 0xE4, 0x93, 0xA3,
0x40, 0x03, 0xF6, 0x80, 0x01, 0xF2, 0x08, 0xDF, 0xF4, 0x80, 0x29, 0xE4, 0x93, 0xA3, 0xF8, 0x54,
0x07, 0x24, 0x0C, 0xC8, 0xC3, 0x33, 0xC4, 0x54, 0x0F, 0x44, 0x20, 0xC8, 0x83, 0x40, 0x04, 0xF4,
0x56, 0x80, 0x01, 0x46, 0xF6, 0xDF, 0xE4, 0x80, 0x0B, 0x01, 0x02, 0x04, 0x08, 0x10, 0x20, 0x40,
0x80, 0x90, 0x3A, 0xE7, 0xE4, 0x7E, 0x01, 0x93, 0x60, 0xBC, 0xA3, 0xFF, 0x54, 0x3F, 0x30, 0xE5,
0x09, 0x54, 0x1F, 0xFE, 0xE4, 0x93, 0xA3, 0x60, 0x01, 0x0E, 0xCF, 0x54, 0xC0, 0x25, 0xE0, 0x60,
0xA8, 0x40, 0xB8, 0xE4, 0x93, 0xA3, 0xFA, 0xE4, 0x93, 0xA3, 0xF8, 0xE4, 0x93, 0xA3, 0xC8, 0xC5,
0x82, 0xC8, 0xCA, 0xC5, 0x83, 0xCA, 0xF0, 0xA3, 0xC8, 0xC5, 0x82, 0xC8, 0xCA, 0xC5, 0x83, 0xCA,
0xDF, 0xE9, 0xDE, 0xE7, 0x80, 0xBE, 0x90, 0x20, 0xEE, 0xE0, 0x20, 0xE3, 0xF9, 0x12, 0x0E, 0x00,
0x90, 0x21, 0x00, 0xE4, 0xF0, 0x90, 0x27, 0x00, 0x12, 0x0F, 0x65, 0x74, 0xF0, 0xF0, 0x90, 0x80,
0x56, 0xE0, 0xB4, 0x01, 0x0B, 0x90, 0x81, 0xED, 0xE0, 0xB4, 0x01, 0x02, 0x80, 0x11, 0x80, 0x13,
0xC3, 0x90, 0x80, 0x63, 0xE0, 0x94, 0x50, 0x90, 0x80, 0x62, 0xE0, 0x94, 0x14, 0x50, 0x04, 0x7F,
0x05, 0x80, 0x02, 0x7F, 0x12, 0x12, 0x3A, 0x07, 0x90, 0x27, 0x03, 0x74, 0x01, 0xF0, 0x90, 0x27,
0x02, 0x74, 0x80, 0xF0, 0xA3, 0x74, 0x04, 0xF0, 0x12, 0x0F, 0xA3, 0x12, 0x0E, 0x7A, 0xA3, 0x12,
0x0D, 0x9E, 0x90, 0x28, 0x05, 0xE0, 0x20, 0xE7, 0x11, 0x90, 0x23, 0xF9, 0xE0, 0x20, 0xE0, 0x0A,
0x7F, 0x05, 0x12, 0x0D, 0x94, 0x12, 0x3A, 0xB5, 0x80, 0xE8, 0x90, 0x28, 0x05, 0xE0, 0x90, 0x23,
0xE0, 0x30, 0xE7, 0x05, 0x74, 0x04, 0xF0, 0x80, 0x02, 0xE4, 0xF0, 0x90, 0x23, 0xF0, 0xE4, 0xF0,
0x22, 0x90, 0x26, 0x03, 0xE0, 0x44, 0x80, 0xF0, 0x7F, 0x05, 0x12, 0x0D, 0x94, 0x12, 0x3A, 0xB5,
0x90, 0x2D, 0x75, 0xE0, 0x54, 0x0F, 0xFF, 0xE4, 0xFC, 0xFD, 0xFE, 0x12, 0x0E, 0x6E, 0x12, 0x0D,
0x70, 0x12, 0x0D, 0xD4, 0x12, 0x0E, 0x6B, 0x12, 0x0D, 0x70, 0x90, 0x2D, 0x73, 0x12, 0x0D, 0xD7,
0x12, 0x0E, 0x6B, 0x12, 0x0D, 0x70, 0x90, 0x2D, 0x72, 0x12, 0x0D, 0xD7, 0x12, 0x06, 0xB9, 0x90,
0x82, 0x00, 0x12, 0x07, 0xDC, 0x12, 0x0F, 0x3D, 0x12, 0x0E, 0x74, 0x78, 0x04, 0x12, 0x07, 0x22,
0xEC, 0x12, 0x03, 0x39, 0xE4, 0xFB, 0xFA, 0x79, 0x80, 0x78, 0x41, 0x12, 0x0E, 0x8F, 0xE4, 0xFB,
0xFA, 0xF9, 0x78, 0x4D, 0x12, 0x0E, 0x8F, 0xE4, 0xFB, 0xFA, 0xF9, 0x78, 0x41, 0x12, 0x02, 0x2F,
0x90, 0x82, 0x04, 0x12, 0x07, 0xDC, 0x12, 0x0F, 0x59, 0x90, 0x82, 0x04, 0x12, 0x07, 0x5A, 0x12,
0x01, 0x26, 0x12, 0x0E, 0x92, 0x12, 0x03, 0x77, 0x22, 0x12, 0x13, 0x4F, 0xE4, 0x12, 0x13, 0x6D,
0x90, 0x20, 0xD0, 0xEE, 0xF0, 0x90, 0x80, 0xCA, 0xE0, 0x14, 0x60, 0x12, 0x14, 0x60, 0x17, 0x14,
0x60, 0x1C, 0x24, 0x03, 0x70, 0x20, 0x7B, 0xFF, 0x7A, 0x2A, 0x79, 0x6D, 0x80, 0x1E, 0x7B, 0xFF,
0x7A, 0x2A, 0x79, 0x85, 0x80, 0x16, 0x7B, 0xFF, 0x7A, 0x2A, 0x79, 0x9D, 0x80, 0x0E, 0x7B, 0xFF,
0x7A, 0x2A, 0x79, 0xB5, 0x80, 0x06, 0x7B, 0xFF, 0x7A, 0x2A, 0x79, 0xCD, 0x90, 0x81, 0xF5, 0x12,
0x08, 0x47, 0x90, 0x81, 0xF5, 0x12, 0x10, 0x63, 0x90, 0x2D, 0xCD, 0xF0, 0x8F, 0x82, 0x12, 0x11,
0xB5, 0x12, 0x12, 0x65, 0x90, 0x27, 0x64, 0x74, 0x05, 0xF0, 0xA3, 0x74, 0x33, 0xF0, 0x90, 0x2D,
0xCF, 0x74, 0x55, 0xF0, 0x90, 0x2C, 0xFE, 0x74, 0xFF, 0xF0, 0x22, 0x90, 0x23, 0xE0, 0xE0, 0x54,
0x0F, 0xFF, 0x90, 0x2F, 0x1C, 0xE0, 0x60, 0xFA, 0xEF, 0x12, 0x08, 0x50, 0x36, 0x04, 0x00, 0x36,
0x07, 0x01, 0x36, 0x0A, 0x02, 0x36, 0x0D, 0x03, 0x36, 0x10, 0x04, 0x36, 0x13, 0x05, 0x36, 0x16,
0x06, 0x36, 0x19, 0x07, 0x36, 0x24, 0x08, 0x36, 0x2F, 0x09, 0x36, 0x32, 0x0A, 0x36, 0x35, 0x0B,
0x00, 0x00, 0x36, 0x38, 0x02, 0x27, 0xD7, 0x02, 0x37, 0x10, 0x02, 0x3A, 0x43, 0x02, 0x34, 0x46,
0x02, 0x37, 0x72, 0x02, 0x13, 0xE6, 0x02, 0x19, 0x9B, 0x7F, 0x1E, 0x12, 0x0D, 0x94, 0x12, 0x39,
0xC9, 0x02, 0x2F, 0xDA, 0x7F, 0x1E, 0x12, 0x0D, 0x94, 0x12, 0x39, 0xC9, 0x02, 0x31, 0x4A, 0x02,
0x30, 0x96, 0x02, 0x2F, 0x1D, 0x02, 0x22, 0xC3, 0x12, 0x38, 0x78, 0x22, 0x12, 0x13, 0x4F, 0xF0,
0x90, 0x2D, 0x40, 0x74, 0x10, 0xF0, 0x90, 0x2A, 0xE0, 0x74, 0x01, 0x12, 0x13, 0x6D, 0xEE, 0x14,
0x60, 0x12, 0x14, 0x60, 0x17, 0x14, 0x60, 0x1C, 0x24, 0x03, 0x70, 0x20, 0x7B, 0xFF, 0x7A, 0x2A,
0x79, 0x6D, 0x80, 0x1E, 0x7B, 0xFF, 0x7A, 0x2A, 0x79, 0x85, 0x80, 0x16, 0x7B, 0xFF, 0x7A, 0x2A,
0x79, 0x9D, 0x80, 0x0E, 0x7B, 0xFF, 0x7A, 0x2A, 0x79, 0xB5, 0x80, 0x06, 0x7B, 0xFF, 0x7A, 0x2A,
0x79, 0xCD, 0x90, 0x81, 0xF4, 0x12, 0x08, 0x47, 0x90, 0x81, 0xF4, 0x12, 0x10, 0x63, 0x90, 0x2D,
0xCD, 0xF0, 0x8F, 0x82, 0x12, 0x11, 0xB5, 0x12, 0x12, 0x65, 0x90, 0x2D, 0xCF, 0x74, 0x55, 0xF0,
0x90, 0x2D, 0xCE, 0x74, 0x71, 0xF0, 0x90, 0x2C, 0xFE, 0x74, 0xFF, 0xF0, 0x22, 0x12, 0x0E, 0xD9,
0x12, 0x0D, 0x94, 0x12, 0x3A, 0xB5, 0x90, 0x2D, 0x75, 0x12, 0x0D, 0x60, 0x12, 0x0D, 0xD4, 0x12,
0x05, 0xD0, 0x12, 0x0D, 0x66, 0x90, 0x2D, 0x73, 0x12, 0x0D, 0xD7, 0x12, 0x05, 0xD0, 0x12, 0x0D,
0x66, 0x90, 0x2D, 0x72, 0x12, 0x0D, 0xD7, 0x12, 0x05, 0xD0, 0x78, 0x26, 0x12, 0x07, 0xD0, 0x90,
0x2C, 0x3D, 0xE0, 0x54, 0xFE, 0xF0, 0xE4, 0xFF, 0xFE, 0x7D, 0x50, 0x7C, 0x0E, 0x78, 0x26, 0x12,
0x07, 0x4D, 0xD3, 0x12, 0x06, 0xEA, 0x50, 0x12, 0xE4, 0xFF, 0xFE, 0x7D, 0xA0, 0x7C, 0x01, 0x78,
0x26, 0x12, 0x07, 0x4D, 0xC3, 0x12, 0x06, 0xEA, 0x50, 0x03, 0x7F, 0x00, 0x22, 0x7F, 0x01, 0x22,
0x90, 0x20, 0xEE, 0xE0, 0x20, 0xE1, 0xF9, 0x74, 0xF8, 0x12, 0x0F, 0x9B, 0xF0, 0x90, 0x80, 0x6B,
0xE0, 0x60, 0x07, 0x90, 0x27, 0x28, 0xE0, 0x54, 0xFE, 0xF0, 0x12, 0x0E, 0x7A, 0xA3, 0x12, 0x0D,
0x9E, 0x90, 0x27, 0x37, 0xE0, 0x20, 0xE0, 0x18, 0x90, 0x23, 0xF9, 0xE0, 0x20, 0xE0, 0x11, 0x90,
0x80, 0x8D, 0xE0, 0xB4, 0x01, 0x0A, 0x7F, 0x01, 0x12, 0x0D, 0x94, 0x12, 0x39, 0xC9, 0x80, 0xE1,
0x90, 0x27, 0x37, 0xE0, 0x20, 0xE0, 0x08, 0x90, 0x80, 0x8D, 0xE0, 0x64, 0x01, 0x60, 0x08, 0x90,
0x23, 0xE0, 0x74, 0x02, 0xF0, 0x80, 0x05, 0x90, 0x23, 0xE0, 0xE4, 0xF0, 0x90, 0x23, 0xF0, 0xE4,
0xF0, 0x22, 0x90, 0x20, 0xEE, 0xE0, 0x20, 0xE4, 0xF9, 0x90, 0x27, 0x05, 0x74, 0xD0, 0xF0, 0x90,
0x27, 0x34, 0xE0, 0x20, 0xE0, 0x03, 0x74, 0x40, 0xF0, 0x90, 0x27, 0x36, 0x74, 0x54, 0xF0, 0x90,
0x27, 0x65, 0x74, 0x33, 0x12, 0x0D, 0x40, 0x12, 0x0F, 0xA3, 0x90, 0x21, 0x01, 0x74, 0xF0, 0xF0,
0x90, 0x27, 0x01, 0x74, 0xE0, 0xF0, 0xE0, 0x54, 0xEF, 0x12, 0x0F, 0x1C, 0xF0, 0x90, 0x28, 0x96,
0xE0, 0x54, 0xFE, 0xF0, 0x90, 0x28, 0x8C, 0xE0, 0x44, 0x01, 0xF0, 0x90, 0x23, 0xE0, 0x74, 0x05,
0xF0, 0x90, 0x26, 0x3C, 0x74, 0x03, 0xF0, 0x74, 0x06, 0x12, 0x0D, 0xFE, 0x22, 0x90, 0x1F, 0x01,
0xE4, 0xF0, 0xA3, 0xE0, 0x54, 0xFC, 0x12, 0x13, 0x7A, 0x90, 0x1F, 0x22, 0x60, 0x1B, 0xE0, 0x44,
0x12, 0xF0, 0xE0, 0x54, 0xD7, 0xF0, 0xC0, 0x83, 0xC0, 0x82, 0x12, 0x12, 0x8E, 0xD0, 0x82, 0xD0,
0x83, 0x12, 0x12, 0xFC, 0x12, 0x13, 0x3C, 0x80, 0x16, 0xE0, 0x44, 0x10, 0xF0, 0xE0, 0x54, 0xD5,
0xF0, 0xC0, 0x83, 0xC0, 0x82, 0x12, 0x12, 0x8E, 0xD0, 0x82, 0xD0, 0x83, 0x12, 0x12, 0xFC, 0x12,
0x13, 0x27, 0x12, 0x13, 0xC0, 0x90, 0x1F, 0x68, 0x74, 0x08, 0xF0, 0x90, 0x1F, 0x01, 0xE4, 0xF0,
0x90, 0x1F, 0x05, 0x74, 0x10, 0xF0, 0x22, 0x12, 0x26, 0x43, 0x12, 0x31, 0xF1, 0x90, 0x2F, 0x00,
0xE4, 0xF0, 0x90, 0x2F, 0x1C, 0xF0, 0x90, 0x20, 0xC0, 0x12, 0x39, 0x8C, 0x90, 0x3B, 0xB8, 0x93,
0x90, 0x20, 0xC1, 0xF0, 0x90, 0x3B, 0xB9, 0xE4, 0x93, 0x90, 0x20, 0xC2, 0xF0, 0x12, 0x3B, 0xF5,
0x90, 0x80, 0xD4, 0x12, 0x07, 0xDC, 0x90, 0x20, 0xDA, 0x12, 0x39, 0x89, 0x90, 0x2F, 0x00, 0xF0,
0x90, 0x20, 0xE0, 0x74, 0x22, 0xF0, 0x90, 0x2F, 0x1C, 0xE0, 0x60, 0xFA, 0x90, 0x20, 0xEE, 0xE4,
0xF0, 0xA3, 0xF0, 0x12, 0x1C, 0x09, 0x80, 0xFB, 0x90, 0x20, 0xEF, 0xE0, 0x20, 0xE4, 0xF9, 0x90,
0x23, 0x01, 0x74, 0x1F, 0xF0, 0x90, 0x80, 0xA6, 0xE0, 0x60, 0x06, 0x12, 0x10, 0x12, 0x12, 0x07,
0xDC, 0x90, 0x23, 0x2C, 0xE0, 0x20, 0xE3, 0x04, 0xE0, 0x30, 0xE2, 0x05, 0x90, 0x23, 0xE0, 0xE4,
0xF0, 0x90, 0x26, 0x15, 0xE0, 0x20, 0xE4, 0x05, 0x90, 0x23, 0xE0, 0xE4, 0xF0, 0x12, 0x2B, 0xA1,
0xBF, 0x01, 0x0A, 0x90, 0x81, 0xC2, 0x12, 0x08, 0x01, 0x00, 0x00, 0x00, 0x00, 0x22, 0x90, 0x82,
0x26, 0x12, 0x07, 0xDC, 0x90, 0x82, 0x26, 0x12, 0x07, 0x41, 0x90, 0x82, 0x2A, 0x12, 0x07, 0x5A,
0xD3, 0x12, 0x06, 0xEA, 0x90, 0x82, 0x2A, 0x40, 0x1D, 0x12, 0x07, 0x5A, 0xC3, 0x74, 0xFF, 0x9B,
0xFF, 0x74, 0xFF, 0x9A, 0xFE, 0x74, 0xFF, 0x99, 0xFD, 0x74, 0xFF, 0x98, 0xFC, 0x90, 0x82, 0x26,
0x12, 0x07, 0x5A, 0x02, 0x05, 0xD0, 0x12, 0x07, 0x5A, 0x90, 0x82, 0x26, 0x12, 0x07, 0x41, 0x12,
0x05, 0xDD, 0x22, 0xC2, 0xD5, 0xE8, 0x30, 0xE7, 0x0F, 0xB2, 0xD5, 0xE4, 0xC3, 0x9B, 0xFB, 0xE4,
0x9A, 0xFA, 0xE4, 0x99, 0xF9, 0xE4, 0x98, 0xF8, 0xEC, 0x30, 0xE7, 0x17, 0xB2, 0xD5, 0x12, 0x39,
0x39, 0x12, 0x06, 0x27, 0xE4, 0xC3, 0x9B, 0xFB, 0xE4, 0x9A, 0xFA, 0xE4, 0x99, 0xF9, 0xE4, 0x98,
0xF8, 0x80, 0x03, 0x12, 0x06, 0x27, 0x30, 0xD5, 0x0D, 0xE4, 0xC3, 0x9F, 0xFF, 0xE4, 0x9E, 0xFE,
0xE4, 0x9D, 0xFD, 0xE4, 0x9C, 0xFC, 0x22, 0x78, 0x34, 0xE6, 0x54, 0x03, 0x14, 0x60, 0x0B, 0x24,
0xFE, 0x60, 0x0C, 0x04, 0x70, 0x20, 0x78, 0x37, 0x80, 0x0C, 0x12, 0x0F, 0xC9, 0x80, 0x17, 0x12,
0x0F, 0xC9, 0xE6, 0x20, 0xE0, 0x10, 0xE6, 0xC3, 0x13, 0x54, 0x01, 0xF4, 0x54, 0x01, 0x25, 0xE0,
0xFF, 0xE6, 0x54, 0xFD, 0x4F, 0xF6, 0x78, 0x37, 0xE6, 0xC3, 0x13, 0x54, 0x01, 0x90, 0x80, 0xA3,
0xF0, 0xE6, 0x54, 0x01, 0x90, 0x80, 0x98, 0xF0, 0x22, 0xE4, 0xF0, 0xA3, 0xF0, 0xA3, 0xF0, 0xA3,
0xF0, 0xA3, 0xF0, 0xA3, 0xF0, 0x22, 0x90, 0x80, 0x18, 0xE0, 0xFE, 0x90, 0x80, 0x17, 0xE0, 0x90,
0x80, 0x70, 0xFD, 0xED, 0xFF, 0xE4, 0xFC, 0xFD, 0x02, 0x07, 0xDC, 0x90, 0x2E, 0x6B, 0xF0, 0x90,
0x2E, 0x6A, 0x74, 0x03, 0xF0, 0x22, 0xFE, 0xE0, 0xFD, 0xEE, 0xFC, 0xE4, 0x02, 0x03, 0x3E, 0xE0,
0x54, 0x01, 0xFF, 0xE6, 0x54, 0xFE, 0x4F, 0xF6, 0x22, 0x90, 0x82, 0x1E, 0x12, 0x07, 0xDC, 0x12,
0x3B, 0xF5, 0x90, 0x82, 0x22, 0x12, 0x07, 0xDC, 0x12, 0x3B, 0xF5, 0xC0, 0x04, 0xC0, 0x05, 0xC0,
0x06, 0xC0, 0x07, 0x90, 0x82, 0x22, 0x12, 0x07, 0x41, 0x90, 0x82, 0x2A, 0x12, 0x07, 0xDC, 0xD0,
0x07, 0xD0, 0x06, 0xD0, 0x05, 0xD0, 0x04, 0x12, 0x38, 0xBE, 0x90, 0x82, 0x1E, 0x12, 0x07, 0x5A,
0xC3, 0x12, 0x06, 0xEA, 0x50, 0xD2, 0x22, 0xEF, 0x24, 0xFB, 0x70, 0x08, 0x7B, 0xFF, 0x7A, 0x2B,
0x79, 0x41, 0x80, 0x06, 0x7B, 0xFF, 0x7A, 0x2A, 0x79, 0xE5, 0x90, 0x81, 0xF4, 0x12, 0x08, 0x47,
0xE4, 0xFE, 0x90, 0x81, 0xF4, 0x12, 0x08, 0x3E, 0x75, 0xF0, 0x02, 0xEE, 0xA4, 0xF5, 0x82, 0x85,
0xF0, 0x83, 0x12, 0x05, 0x98, 0xFD, 0xAC, 0xF0, 0xAF, 0x06, 0x12, 0x3B, 0xDC, 0x0E, 0xEE, 0xB4,
0x2E, 0xE0, 0x22, 0x90, 0x20, 0xEE, 0xE0, 0x20, 0xE2, 0xF9, 0x90, 0x27, 0x34, 0xE0, 0x20, 0xE0,
0x03, 0x74, 0x40, 0xF0, 0x12, 0x08, 0x76, 0x74, 0x44, 0x12, 0x0D, 0x3D, 0x12, 0x0F, 0xA3, 0x90,
0x21, 0x00, 0x74, 0xC0, 0xF0, 0x90, 0x27, 0x00, 0x74, 0x80, 0xF0, 0x74, 0xFF, 0x12, 0x0F, 0x68,
0xF0, 0x74, 0x01, 0x12, 0x0D, 0xBE, 0xF0, 0x90, 0x23, 0xE0, 0x74, 0x03, 0xF0, 0x22, 0xC0, 0xE0,
0xC0, 0xF0, 0xC0, 0x83, 0xC0, 0x82, 0xC0, 0xD0, 0x75, 0xD0, 0x10, 0x75, 0x8A, 0xD8, 0x75, 0x8C,
0xDC, 0xC2, 0x8D, 0x78, 0x39, 0x12, 0x07, 0x35, 0xEF, 0x24, 0x01, 0xFF, 0xE4, 0x3E, 0xFE, 0xE4,
0x3D, 0xFD, 0xE4, 0x3C, 0xFC, 0x78, 0x39, 0x12, 0x07, 0xD0, 0xD0, 0xD0, 0xD0, 0x82, 0xD0, 0x83,
0xD0, 0xF0, 0xD0, 0xE0, 0x32, 0x80, 0x27, 0xE4, 0xFF, 0xFE, 0xFD, 0xFC, 0x90, 0x82, 0x1E, 0x12,
0x07, 0x5A, 0xD3, 0x12, 0x06, 0xEA, 0x40, 0x1E, 0x90, 0x82, 0x1E, 0x12, 0x07, 0x41, 0xEF, 0x24,
0xFF, 0xFF, 0xEE, 0x34, 0xFF, 0xFE, 0xED, 0x34, 0xFF, 0xFD, 0xEC, 0x34, 0xFF, 0xFC, 0x90, 0x82,
0x1E, 0x12, 0x07, 0xDC, 0x80, 0xD1, 0x22, 0x41, 0x81, 0x85, 0xC0, 0x41, 0x81, 0x92, 0xC0, 0x41,
0x81, 0xDF, 0xC0, 0x41, 0x81, 0xA5, 0xC0, 0x41, 0x81, 0xA4, 0xC0, 0x46, 0x81, 0xC7, 0x00, 0xC8,
0x01, 0x90, 0x02, 0x58, 0x46, 0x81, 0xAA, 0xFF, 0x38, 0xFE, 0x70, 0xFD, 0xA8, 0x04, 0x39, 0x00,
0x00, 0x00, 0x00, 0x02, 0x3D, 0x00, 0x00, 0x00, 0x90, 0x2F, 0x02, 0xE0, 0x78, 0x0D, 0x76, 0x00,
0x08, 0xF6, 0xE6, 0xFE, 0x90, 0x2F, 0x01, 0xE0, 0xFD, 0xEE, 0x18, 0xF6, 0xED, 0x08, 0xF6, 0x22,
0x18, 0xE6, 0xFE, 0x08, 0xE6, 0xFF, 0xC3, 0x94, 0x46, 0xEE, 0x94, 0x00, 0x22, 0x74, 0x00, 0x2F,
0xF5, 0x82, 0xE4, 0x34, 0x80, 0xF5, 0x83, 0x22, 0x90, 0x80, 0x68, 0xE0, 0x90, 0x1E, 0x34, 0xF0,
0x12, 0x2D, 0x8A, 0x90, 0x1E, 0x00, 0x74, 0x80, 0xF0, 0xA3, 0x74, 0x01, 0xF0, 0x90, 0x1E, 0x00,
0xE4, 0xF0, 0xA3, 0xF0, 0x7F, 0x03, 0xFE, 0xFD, 0xFC, 0x12, 0x39, 0xC9, 0x90, 0x23, 0xE0, 0xE4,
0xF0, 0x22, 0x90, 0x80, 0xA6, 0xE0, 0x60, 0x1F, 0x12, 0x0E, 0x36, 0x90, 0x81, 0x85, 0x40, 0x04,
0x74, 0x64, 0x80, 0x02, 0x74, 0xC0, 0xF0, 0x90, 0x81, 0x92, 0xF0, 0x90, 0x81, 0xDF, 0xF0, 0x90,
0x81, 0xA5, 0xF0, 0x90, 0x81, 0xA4, 0xF0, 0x22, 0x4D, 0x53, 0x56, 0x43, 0x30, 0x30, 0x50, 0x31,
0x52, 0x30, 0x30, 0x2E, 0x31, 0x33, 0x30, 0x30, 0x30, 0x30, 0x30, 0x30, 0x30, 0x30, 0x41, 0x2D,
0x31, 0x32, 0x30, 0x34, 0x30, 0x32, 0x30, 0x00, 0x00, 0x13, 0xE5, 0x89, 0x54, 0xF0, 0x44, 0x01,
0xF5, 0x89, 0x75, 0x8C, 0xDC, 0x75, 0x8A, 0xD8, 0xD2, 0x8C, 0x78, 0x39, 0x12, 0x07, 0xE8, 0x00,
0x00, 0x00, 0x00, 0xE4, 0x78, 0x3D, 0xF6, 0x08, 0xF6, 0xD2, 0xA9, 0x22, 0x90, 0x27, 0x6A, 0x74,
0x01, 0xF0, 0xA3, 0xEF, 0xF0, 0xA3, 0xED, 0xF0, 0xEC, 0x54, 0x1F, 0x44, 0x80, 0xA3, 0xF0, 0x90,
0x27, 0x6A, 0xE4, 0xF0, 0x22, 0xD3, 0x10, 0xA9, 0x01, 0xC3, 0x92, 0xD1, 0x78, 0x39, 0x12, 0x07,
0x35, 0x30, 0xD1, 0x02, 0xD2, 0xA9, 0x22, 0x90, 0x2F, 0x00, 0xE4, 0xF0, 0xD2, 0xA8, 0xD2, 0x88,
0x90, 0x1B, 0x00, 0xE0, 0x54, 0xFB, 0xF0, 0x22, 0x75, 0x8E, 0x02, 0xD2, 0xAF, 0xE4, 0xFF, 0x02,
0x00, 0x0A,